# Blender v2.74 (sub 0) OBJ File: ''
# www.blender.org
mtllib leaves-LP.mtl
o polySurface2937
v -4.028437 11.230305 -7.508450
v -5.012492 9.154282 -6.802804
v -3.201796 8.779247 -5.393308
v 0.031228 11.937630 -8.469168
v -1.633128 10.605713 -7.359175
v 0.040122 9.507164 -6.176219
v -1.767020 11.395966 -0.199526
v -2.331432 10.216353 -2.212841
v -6.209877 10.015212 -0.668207
v 2.905523 10.391938 1.886233
v 5.077593 9.406303 1.613917
v 3.272990 6.902680 -1.204934
v 1.319982 10.454067 -1.062785
v 2.030689 10.090370 1.201321
v 3.845175 6.607715 -0.230011
v 5.622916 9.113042 1.296318
v 1.791037 7.745801 -0.196543
v 5.515783 10.754571 0.763171
v 6.278600 9.552534 -1.169891
v 2.782554 7.293407 -0.790719
v 0.082680 8.750515 -0.907998
v 1.550113 6.894361 -4.353665
v -0.797217 9.035856 -4.088763
v 2.827701 6.955509 -4.146489
v 3.039735 9.209160 -0.740430
v 0.574743 7.056356 -3.339764
v 2.407348 10.458162 -0.996638
v 1.204073 7.060501 -3.112718
v -6.883223 10.131712 -9.843767
v -3.840072 8.668074 -9.004320
v -3.311480 11.054370 -9.537131
v -5.001571 8.411784 -6.775725
v -3.532364 9.696133 -6.071808
v -5.159996 8.312541 -7.167244
v -5.150764 6.026052 -3.668387
v 4.147278 13.317644 0.664430
v 6.534666 13.384164 0.420468
v 6.093019 10.015763 -2.014676
v 2.489943 12.234778 -1.635177
v 2.476236 8.791396 -4.004454
v 6.201764 10.394371 -4.593986
v 3.061974 9.803320 -1.899236
v 1.910233 9.954536 2.179429
v 3.787418 9.233950 5.843892
v -0.743706 10.641163 5.966712
v 2.530804 8.417238 4.624003
v 1.017878 10.239923 2.442746
v -0.479897 9.624706 4.215222
v 2.693739 10.464262 6.802189
v 1.006071 11.601700 0.725511
v -0.862900 11.857454 2.210433
v 1.182226 9.263325 4.771245
v 3.747136 11.021769 2.510066
v 0.902581 9.151752 4.935408
v -1.264198 10.307932 -3.318820
v -2.659507 9.007229 0.399670
v 0.317278 12.181862 -9.366381
v -0.904926 10.761740 -10.867380
v -2.207824 8.747416 -7.444758
v -1.509277 10.604319 -11.311577
v -3.491870 9.635582 -10.365829
v -1.450235 9.723043 -6.719699
v -1.992229 12.015174 -11.083012
v -3.927279 10.711464 -10.517799
v -1.653007 9.241076 -7.334039
v -2.848732 7.131226 -9.339129
v 0.571238 7.798870 -7.030858
v -2.812484 8.677107 -10.212910
v -3.984600 9.175072 -8.177799
v -0.551204 7.832591 -6.208151
v 6.685834 9.458603 2.970016
v 6.361523 9.321213 0.595256
v 4.330437 5.750627 1.367402
v 3.031902 8.204994 3.634202
v 5.392738 8.299160 4.059622
v 5.867198 7.119980 0.077964
v 6.737826 9.489050 -5.167674
v 3.001360 7.762244 -5.893844
v 3.770549 11.058466 -5.290578
v 5.831489 9.935715 -4.785111
v 4.192502 6.642975 -6.770562
v 4.524875 11.106003 -5.521770
v 6.597563 10.067677 -6.145800
v 4.274470 7.490242 -8.476153
v -1.614992 9.678591 -4.442316
v 1.920908 7.457365 -4.262699
v 3.579308 10.104603 -6.310955
v 1.527151 9.467985 -7.381877
v -0.182321 9.643895 -3.571786
v -5.107543 4.887414 -4.461510
v -1.168746 3.660204 -5.132762
v -2.680518 6.567999 -6.122957
v -4.515181 5.239031 -5.328321
v -1.612609 2.796341 -3.573436
v -3.313491 9.201252 -4.641919
v 0.365482 7.831550 -6.078407
v 2.755021 7.633006 -5.558397
v 3.362473 7.828531 -1.427506
v 3.196510 10.411133 -3.675981
v 3.294619 8.467710 -5.082040
v 2.387312 6.281542 -1.636988
v 0.406601 6.188206 -4.400617
v 3.858210 7.847759 -2.726476
v -0.060999 7.399034 -4.966557
v 3.389029 7.354114 -2.607307
v 2.879199 9.803749 -4.094404
v 1.089674 7.656149 -0.986982
v 3.232635 8.517017 -6.127580
v 2.606705 9.627625 -2.146874
v 3.639488 11.604103 -4.784900
v 3.764676 9.381908 -5.684784
v 1.456365 8.228241 -2.396625
v 0.394760 7.714393 -5.600166
v 3.447342 9.276986 -3.210862
v 0.354797 9.061788 -6.772624
v -1.078485 9.787376 -4.988580
v 2.255421 9.332930 -2.508899
v 3.347085 10.952076 -5.160108
v 0.323462 9.865967 -2.486425
v -2.139851 11.815737 -9.307956
v -1.707622 9.067357 -6.188586
v -6.104156 9.437829 -8.511933
v -5.672681 9.842402 -6.185211
v -1.629829 9.413071 -7.154434
v -2.895546 11.421057 -9.455551
v -2.875581 9.798603 -5.603068
v -1.482696 12.429448 -9.254363
v -0.373890 10.893198 -5.356795
v 0.623291 11.498812 -9.900296
v 6.835506 9.564650 -7.534114
v 3.997262 10.499623 -4.611587
v 4.210741 9.313107 -8.959354
v 5.260925 10.057290 -4.982500
v 6.588511 11.847969 -6.259498
v 2.457860 11.211605 -6.190858
v 6.152477 10.825314 0.318176
v 2.416200 9.098948 -0.407985
v 6.624444 11.160283 -2.611223
v 4.919609 10.381238 -4.111268
v 2.942684 9.007705 -0.695274
v 4.564336 6.147539 0.297726
v 1.441740 6.331463 3.070109
v 4.659195 7.881062 -0.006695
v 2.954344 7.102196 -1.506820
v 0.977390 5.728200 1.909480
v 1.974244 9.162995 2.568624
v 4.046889 8.124608 1.944606
v 1.723783 5.547179 -0.385801
v -3.730927 6.659553 1.127098
v -2.039940 5.379442 -2.474655
v -1.059641 8.115463 1.338761
v 0.037512 8.471498 -0.766720
v -2.541442 5.550806 -2.279485
v -1.880785 8.877954 1.059939
v -2.356299 5.402776 -1.213397
v -4.782371 7.521980 -1.269791
v -3.535678 7.717893 0.772494
v -0.121960 7.357130 -1.612002
v 7.020082 8.095047 -3.013105
v 4.863591 4.575162 -2.357082
v -5.541330 6.450556 -6.526542
v -1.678686 4.993822 -5.873209
v -1.955889 7.690077 -7.630414
v -3.959439 6.375159 -7.772885
v -3.554301 5.831742 -3.648258
v 5.983465 12.798624 -6.592669
v 4.161970 10.177606 -9.290445
v 6.554885 14.684746 -8.726599
v 7.139254 12.444618 -9.371970
v 5.409044 11.618256 -8.056881
v 5.660041 16.437817 -1.373224
v 4.443074 15.002731 0.122000
v 4.727300 13.229313 -1.354537
v 4.823493 14.221462 0.392770
v 3.606524 12.786381 1.887992
v 3.890750 11.012960 0.411453
v 0.103933 14.411926 5.463602
v -0.364685 12.132895 6.065742
v 1.190371 11.402962 4.498912
v 4.936964 7.117279 -7.506661
v 4.181314 5.911849 -5.569629
v 3.769197 7.925100 -4.481998
v -7.142420 13.898151 -0.542618
v -5.431439 12.953163 -1.941083
v -5.514691 10.984655 -0.706579
v -3.116623 2.866937 -1.956658
v -1.424744 4.468941 -1.367340
v -0.377142 2.870193 -0.043524
v 6.551260 10.980839 4.853867
v 5.156068 11.255295 2.916267
v 4.904508 8.948189 2.775071
v -6.853765 13.877964 -8.967839
v -6.797131 11.288549 -9.580938
v -4.770349 10.968647 -8.025324
v -6.457490 8.305079 -10.839251
v -5.734253 6.302226 -9.242484
v -4.081130 7.865561 -8.036962
v -0.817422 14.408913 -5.504588
v 0.450249 12.201471 -6.282001
v 0.606325 11.432234 -3.829651
v -3.715701 14.175287 -9.555811
v -3.108733 11.622412 -10.001424
v -4.699792 10.917032 -8.103769
v 2.038692 15.733238 -8.808240
v 3.120612 13.500046 -8.555386
v 0.947530 12.478411 -8.316970
v 4.475645 16.507940 -0.761146
v 6.055422 14.774843 -0.234987
v 4.727301 13.229311 -1.354537
v 0.613495 15.701019 -9.553530
v 1.413418 14.672306 -7.426680
v 0.947530 12.478411 -8.316970
v 1.341192 14.542828 5.631752
v 2.669593 12.554678 5.874198
v 1.190371 11.402962 4.498912
v -7.211037 13.863325 -0.729479
v -5.647141 12.793119 0.748716
v -5.514691 10.984655 -0.706579
v 1.492538 7.701018 -5.363205
v 3.518534 6.872625 -4.370596
v 2.334799 6.277347 -2.460002
v -4.297493 11.239727 -4.212677
v -2.434570 9.728107 -4.068810
v -2.934780 9.330128 -1.833333
v 4.066901 6.879839 3.015140
v 2.656142 5.015620 3.572465
v 1.862686 4.967494 1.387500
v 3.911358 5.216846 -4.376730
v 2.202134 6.128300 -5.134869
v 3.914312 6.298237 -2.664453
v 1.963211 6.944841 -3.255249
v 3.470836 4.044783 -2.582461
v 1.359948 4.211107 -3.774173
v 4.947394 6.157640 -3.004027
v 4.122623 5.753739 -4.870471
v 3.541733 7.529094 -2.509516
v 2.485340 6.836669 -4.235353
v -6.476397 11.107285 -6.280742
v -4.575828 10.578884 -6.601535
v -5.770069 8.875011 -9.390491
v -5.130325 8.525227 -3.224684
v -4.801570 10.296188 -4.051056
v -6.275829 9.897366 -5.548198
v 8.686119 13.088406 -8.042352
v 8.468569 12.665609 -10.067414
v 6.472575 13.265601 -9.956091
v 7.988188 13.171751 -7.237635
v 7.286266 13.073536 -9.088294
v 5.309281 13.487559 -8.385406
v 6.721239 11.453444 -10.349971
v 6.068310 10.743972 -8.119796
v 6.561271 13.393505 -7.090913
v 5.182016 11.050798 -9.264008
v 4.721832 12.334911 6.784193
v 5.409204 12.820292 4.881855
v 2.775198 12.661377 6.331037
v 3.430741 12.774363 4.298449
v 3.788425 11.962660 7.147276
v 3.885953 12.595526 5.271842
v 1.766730 12.392067 5.068341
v 5.357517 12.644112 4.052669
v 4.056344 11.958870 2.699229
v 2.929119 9.830521 5.211449
v 4.362884 11.635329 3.431618
v 3.192322 9.938185 4.717311
v -0.759064 10.382398 5.455629
v 1.937162 10.370825 3.256031
v 2.826813 12.289846 6.372652
v 1.592348 13.125914 5.067142
v -0.080650 12.187293 6.012618
v 2.229030 13.260597 6.303271
v 1.483726 13.564985 4.492424
v -0.422779 12.833996 5.128702
v -0.672188 12.129303 3.606854
v -0.883942 11.705229 5.632260
v 0.332157 13.860229 3.917486
v 0.461088 13.235273 5.958766
v 4.049096 9.861338 3.051359
v 3.215747 8.763536 1.050305
v 2.482452 11.992944 2.610682
v 4.208830 11.643532 1.702485
v 3.240415 11.681904 -0.203986
v 5.834899 10.894157 2.372264
v 6.157406 10.103279 0.475560
v 4.695251 11.384666 -0.283706
v 5.327896 9.870197 1.329514
v 3.007110 9.173898 1.149172
v 3.761855 12.443533 2.245234
v 4.908218 12.405476 0.629161
v 3.177324 12.391668 -0.626920
v 2.617821 12.521556 -10.452755
v 0.818976 11.687142 -10.702220
v 0.823604 11.215376 -7.254159
v 2.771167 14.043541 -7.861516
v 3.097270 13.098505 -9.685677
v 1.040759 13.122952 -10.041389
v -0.063167 11.689883 -10.738270
v -1.271107 11.844007 -9.153527
v 1.628523 11.740118 -7.232696
v 0.071553 13.091365 -10.822906
v -1.536963 13.289639 -9.518961
v 1.292493 14.293280 -9.743071
v -0.204790 14.181232 -8.220064
v 1.884718 13.353596 -10.348356
v 0.065450 14.064753 -10.013957
v 0.759262 15.082478 -8.265591
v -0.657112 10.914473 -11.716253
v -2.718932 11.149366 -11.860036
v -0.402933 12.527168 -10.517921
v -2.534521 12.536545 -10.343955
v 0.592194 12.244545 -9.323639
v 0.152199 11.253884 -11.099014
v -1.761693 12.085825 -11.063643
v -3.449020 11.204369 -11.429678
v -4.342144 12.167099 -9.816469
v -1.791063 12.367014 -11.402502
v -2.518424 13.086683 -9.524482
v -2.804563 12.440416 -11.644831
v -3.912223 13.250303 -10.081469
v -1.023512 13.061962 -10.908064
v -2.106306 13.541998 -9.127326
v -5.271175 6.539703 -11.054972
v -6.585459 6.421735 -9.446946
v -5.702372 8.126389 -8.627996
v -6.656403 6.397996 -8.600982
v -6.016602 7.351610 -6.866541
v -5.063049 8.793091 -8.036713
v -6.680298 7.696240 -9.151836
v -6.175163 8.460148 -7.284155
v -5.190165 8.666023 -10.121540
v -4.438634 9.130657 -8.173915
v -3.618935 8.320293 -10.656813
v -5.556500 7.570319 -10.758404
v -4.076602 9.740650 -9.287710
v -5.951773 8.729826 -9.098253
v -5.748175 9.634556 -9.247701
v -3.704166 10.739716 -8.537615
v -6.544413 11.557673 -9.889390
v -6.779058 11.236288 -7.948018
v -5.603512 12.964783 -7.495985
v -7.253098 9.644686 -7.001269
v -6.071892 10.324070 -5.429611
v -7.440964 11.472723 -7.852333
v -5.922797 12.093655 -6.479895
v -7.147949 10.832640 -10.358246
v -6.591653 12.211758 -9.048335
v -4.687640 12.387279 -10.006447
v -3.299644 12.138824 -9.293577
v -4.257405 10.898918 -10.534430
v -5.681251 9.519335 -7.674812
v -7.764975 10.854651 -9.804257
v -8.039485 11.671227 -7.910899
v -6.294444 12.149192 -10.317076
v -6.300874 12.726522 -8.257819
v -7.326830 12.148022 -10.157350
v -7.809000 12.796632 -8.240644
v -5.846183 13.462730 -7.995696
v -5.287191 10.580564 -9.366486
v -6.656597 10.930524 -7.390239
v -4.736634 10.070882 -11.268476
v -6.573425 9.376619 -10.582085
v -4.462920 11.340424 -9.714556
v -6.135326 10.353533 -8.818430
v -3.886373 10.488937 -10.774578
v -5.563124 10.268579 -9.741507
v -4.718163 11.342463 -8.096287
v -5.700260 7.909501 -8.447424
v -3.457438 8.832976 -8.303741
v -6.333912 8.377251 -7.040804
v -7.829957 8.144672 -5.614367
v -5.373165 9.837236 -6.017732
v -6.665942 9.330301 -4.391201
v -8.000549 7.973333 -4.800248
v -7.197361 8.171459 -2.980932
v -4.148937 7.486603 -4.512727
v -7.806301 9.342162 -5.079633
v -7.433376 9.665752 -3.058944
v -6.109524 10.259416 -5.696833
v -5.538383 10.242762 -3.635878
v -4.877563 8.087903 -5.401684
v -5.156617 8.043844 -2.988386
v -6.583963 10.151525 -1.940961
v -7.154475 9.550936 -0.032883
v -6.493378 12.117088 -1.461608
v -6.689865 11.469496 0.567174
v -6.036959 10.994030 -2.305160
v -6.631455 11.001305 -0.414706
v -5.992903 13.030808 -0.197260
v -4.791836 9.985589 1.271520
v -3.729058 11.371037 -0.417817
v -7.728050 10.656370 0.378817
v -7.098022 11.689053 2.071034
v -6.380173 13.217628 0.844450
v -5.307636 10.638327 -0.797487
v -4.893328 11.047434 1.561160
v 3.587937 12.972048 -0.242118
v 5.326037 13.574404 -0.979316
v 4.612108 13.271839 -2.972454
v 6.928889 11.378496 -0.577601
v 4.706435 10.567610 -1.130761
v 6.257932 14.607382 -0.853952
v 7.300613 13.809891 -2.360973
v 5.541101 10.878771 -1.712533
v 4.503533 14.013893 -0.464857
v 5.639179 14.655024 -1.957035
v 4.240227 13.888962 -3.381849
v 6.449247 13.525629 0.659435
v 6.141818 14.136917 -1.200421
v 4.213775 14.888050 -0.659683
v 3.691911 14.141312 0.502695
v 5.490853 14.101370 -0.327677
v 4.655693 14.648636 -2.218959
v 7.432762 12.963722 -1.745613
v 5.963941 14.225454 -2.167358
v 5.758888 14.715813 -0.095780
v 6.792219 14.564190 -0.119255
v 7.467991 14.170998 -2.046871
v 5.012602 15.312510 -0.731056
v 5.535933 14.554062 -2.661033
v 4.087357 12.974869 -0.762001
v 5.523794 12.231853 -2.575084
v 6.159777 11.118361 -3.940305
v 4.511303 11.962206 -4.645823
v 4.078253 12.782219 -2.718657
v 3.425386 12.733788 -2.185169
v 5.419218 12.530920 -2.742388
v 2.848806 13.514503 -3.962626
v 4.788283 12.946375 -4.662319
v 6.153068 11.472284 -3.217363
v 3.784464 10.997473 -3.476932
v 3.631818 14.292984 -2.348191
v 5.695496 14.063548 -2.223360
v 5.749812 13.636418 -4.265660
v 5.072350 11.787395 -6.211424
v 4.140404 13.330336 -5.387959
v 5.961563 13.968006 -4.465576
v 6.361169 13.579700 -5.349226
v 4.930251 12.622812 -6.364668
v 3.879488 11.412209 -3.276094
v 7.288052 9.964727 -9.665551
v 5.945226 8.627915 -10.301216
v 4.381508 9.091793 -7.227473
v 6.001299 12.089752 -7.967613
v 7.269267 10.831372 -9.033312
v 4.375802 11.660362 -9.096629
v 5.565362 10.090849 -9.930600
v 5.192732 8.375799 -10.688231
v 3.184967 8.712772 -10.261261
v 5.701748 10.333153 -10.583176
v 3.748565 10.634661 -9.765791
v 5.169162 9.686930 -11.207735
v 3.125153 9.762693 -10.829163
v 5.568459 11.419075 -10.237398
v 3.558083 11.295967 -9.518237
v -0.539124 9.690699 5.917551
v 0.569204 11.221046 5.320074
v 0.372460 10.598575 3.283480
v -0.271099 10.040705 6.620245
v 1.172894 11.449539 7.127149
v -0.456287 10.691824 4.711566
v 1.286801 11.865379 5.109507
v -0.400978 10.578165 4.209443
v 1.866995 9.836106 3.752487
v 1.231881 12.581146 1.645929
v 1.019924 13.663992 3.292076
v 3.039307 13.243233 3.856953
v -6.578498 6.226004 -0.554436
v -4.933110 6.944096 0.284815
v -4.104949 7.362805 -1.642037
v -2.363722 6.796998 1.160330
v -3.152626 7.796188 -0.508600
v -4.207246 6.666513 2.031330
v -4.523037 7.823792 1.289400
v -2.537469 7.931639 0.678786
v -3.169775 7.896907 -1.310017
v -5.811573 6.856579 -1.781513
v -6.095586 7.314221 0.227665
v -4.228205 8.100328 -1.999056
v -4.269675 8.270134 0.132463
v -6.303476 10.090569 1.345407
v -5.440293 11.078470 -0.139943
v -7.229124 10.938425 -1.303748
v -7.266891 9.971363 -2.732883
v -4.465876 8.277540 -1.552667
v -3.817858 10.626732 0.569822
v -4.900289 11.380995 -0.908917
v -6.685272 11.142319 0.244706
v -4.175422 11.663665 0.251339
v -4.938260 11.674625 -1.577664
v -6.920217 11.609375 -0.776689
v -7.453812 10.728416 -0.042333
v -5.918023 11.980368 -0.077250
v -6.021904 12.085199 -2.210838
v -3.360527 11.497393 2.365151
v -1.345793 11.708361 1.892604
v -4.004273 11.973039 0.504864
v -1.953065 11.805285 -0.076815
v -5.159370 11.020201 0.000638
v -4.244194 10.971224 1.776693
v -2.068177 8.676336 0.325039
v -0.368382 11.038948 -0.568420
v -2.177259 11.702095 -1.032609
v -2.471035 12.376209 0.975682
v -4.713282 11.557868 0.309608
v -3.260736 12.297035 1.602152
v -3.878744 12.378374 -1.343160
v -2.195690 12.798500 -0.092259
v -4.348905 8.984808 -2.337326
v -2.320590 9.166577 -1.011956
v -4.740643 11.852814 0.043848
v -3.267059 12.338692 -1.188934
v -4.465769 11.793547 -2.874128
v -4.403203 12.790892 -0.513510
v -2.591880 12.599287 -1.294336
v -3.437985 12.175499 -3.212271
v -2.186859 11.077073 -3.533126
v -4.251368 11.262497 -3.707434
v -4.183495 12.940826 -2.468504
v -1.471467 12.574638 -6.829206
v -0.110016 12.507957 -8.400493
v -1.671652 12.044291 -9.705359
v -1.447739 12.816391 -7.553446
v -0.879168 12.745960 -9.553131
v -2.890951 12.812666 -10.105068
v -0.243806 8.078570 -10.117170
v -2.272781 7.640685 -9.981253
v -2.572504 9.444391 -8.974707
v 0.705607 10.220261 -8.228718
v 0.460417 8.774940 -9.704500
v -1.609497 8.975007 -9.526133
v 0.258881 10.122208 -8.840569
v -0.815561 9.021618 -10.241013
v -1.279903 11.366930 -8.411425
v -2.486204 10.009470 -9.541079
v 2.658440 7.932251 3.320297
v 4.327270 7.755171 4.549391
v 5.461018 8.768272 3.119484
v 7.409247 9.598669 4.296515
v 6.003951 10.110769 2.996444
v 4.703007 10.685684 4.593617
v 5.046056 9.932190 5.816584
v 6.001088 10.041569 4.083595
v 4.160972 10.436613 3.067801
v 7.707987 9.357626 3.561133
v 6.934952 9.116089 1.645134
v 6.290786 10.687316 4.131039
v 5.281963 10.147223 2.324239
v 6.910252 8.752234 3.365917
v 4.871901 7.866896 4.348259
v 5.452670 8.822747 4.577785
v 5.722674 8.170996 2.252737
v 4.524183 9.372543 -2.152369
v 6.309091 9.365894 -1.084179
v 7.356665 9.591820 -2.875232
v 8.960876 8.661852 -3.440644
v 8.187841 8.420307 -5.356627
v 7.543674 9.991529 -2.870744
v 6.534854 9.451443 -4.677542
v 7.750407 9.441399 -5.365881
v 5.867615 9.718481 -4.813075
v 6.510934 10.488659 -2.924453
v 7.127985 11.393871 3.132776
v 8.911440 10.975116 2.147420
v 7.985619 11.416576 0.329646
v 8.104492 10.431988 -1.336020
v 6.060725 10.653622 -1.653617
v 8.172318 11.783516 0.170656
v 6.035357 11.720697 0.112031
v 7.533173 11.702690 2.563561
v 8.826709 11.681411 0.934657
v 7.385051 12.681578 -0.195673
v 8.368907 10.802894 2.453840
v 8.657714 10.159479 0.583822
v 6.423119 7.610522 1.369409
v 8.474182 10.105621 -0.278122
v 6.831979 9.407837 -1.347377
v 7.370273 11.280476 0.947598
v 5.672394 10.275759 0.121939
v 7.677883 11.247276 -0.050191
v 6.213328 10.428133 -1.279417
v 6.408619 11.594108 1.489286
v 5.006382 10.407701 0.393790
v 6.806867 9.245601 2.292656
v 5.758865 8.209710 0.360752
v -0.150473 10.963261 -1.857782
v 1.881470 11.388077 -1.990790
v 1.688026 11.559293 -4.061930
v 3.353715 10.699459 -4.185860
v 1.597209 11.111206 -5.005883
v 0.874458 11.860659 -3.137758
v 1.871598 12.159912 -3.051287
v 2.957089 11.723896 -4.771335
v 0.069343 11.948790 -3.950520
v 1.162286 11.124582 -5.593717
v -1.108524 10.740227 -4.114177
v -0.001997 11.723331 -2.652666
v 1.227295 12.511272 -4.144090
v 0.423944 10.467459 -2.664676
v 1.491619 10.464886 -4.847233
v -0.748810 10.535783 -5.246228
v 1.657113 10.337704 -4.971168
v 1.228108 12.236404 -1.694931
v 2.792330 12.802071 -2.943969
v -0.188103 13.194077 -2.780441
v 1.336803 13.440182 -4.259657
v 0.610184 13.421310 -2.146086
v 2.336736 13.873322 -3.214580
v 1.198711 13.995105 -4.959984
v -1.354855 12.668572 -4.902609
v -1.131248 12.834728 -2.841213
v -0.021048 14.134352 -5.319498
v 0.496585 14.035776 -3.246744
v 3.467037 10.678509 -5.640983
v 1.732725 11.372396 -6.302794
v 1.509165 12.561909 -4.539567
v 3.028091 11.613459 -6.498806
v 1.522745 11.095051 -7.837523
v 1.825670 12.780449 -5.361429
v 0.212234 11.944878 -6.489501
v 0.923111 12.623768 -3.934679
v 2.842938 12.304775 -4.669144
v 2.119221 12.559147 -6.610248
v 2.839089 13.381506 -3.416733
v 2.830992 12.917240 -5.343307
v 0.842018 13.677721 -5.542185
v 3.903130 11.676771 -6.326151
v 2.265757 11.372658 -7.572536
v 3.223335 13.444782 -5.609684
v 1.381501 12.948568 -6.576850
v 3.612858 13.046879 -6.493576
v 2.107501 12.528473 -7.832290
v 2.410434 14.213881 -5.356194
v 0.796991 13.378288 -6.484262
v 3.324018 13.620374 -4.713356
v 2.572192 13.765678 -6.541180
v 0.715870 14.470704 -5.746861
v -5.191267 3.579190 -4.787525
v -5.947005 4.575230 -3.125085
v -3.861260 5.035774 -5.246626
v -4.353199 5.867854 -3.338862
v -4.247587 3.610943 -5.287657
v -4.637958 4.992820 -3.921900
v -2.852536 6.047625 -4.445011
v -5.760113 4.928339 -2.375659
v -4.436814 6.246077 -1.459467
v -3.604605 6.673531 -3.325227
v -4.778649 4.697242 -2.219917
v -2.932609 3.402197 -3.124682
v -3.160865 4.714491 -5.592188
v -5.149379 4.670771 -4.983200
v -2.870298 6.637321 -5.026869
v -4.766979 6.472011 -4.052555
v -3.976963 4.790266 -1.684967
v -2.016739 5.214985 -1.133503
v -1.965984 6.733383 -2.564667
v -4.060375 6.169907 -1.966242
v -2.128067 6.400879 -1.231556
v -3.671432 7.110386 -3.717111
v -1.615544 6.999236 -3.138405
v -3.259609 6.673192 -5.302691
v -4.670185 6.256169 -3.831866
v -3.479115 7.252882 -2.437495
v -2.263087 9.191188 -7.338439
v -3.308867 9.595621 -5.586398
v -0.917120 10.678448 -7.059616
v -1.738451 10.838837 -5.091454
v 0.562434 10.225241 -7.378839
v -1.311593 9.416552 -7.780072
v -0.082304 11.334614 -5.812020
v -1.899085 10.217600 -5.971774
v -3.020544 10.868134 -5.451835
v -2.061411 11.633785 -3.772308
v -0.358046 11.977546 -4.928482
v -2.141006 10.248030 -7.008547
v -2.046318 11.658459 -5.619675
v -0.020897 12.085152 -6.157797
v -4.097179 9.416367 -10.223618
v -4.958043 8.462158 -8.693042
v -2.169481 9.413322 -6.841691
v -3.686508 8.131202 -7.353127
v -2.009557 9.580610 -8.348181
v -5.088439 4.822972 -7.600354
v -3.967496 5.781315 -5.669333
v -3.342489 5.986818 -9.270500
v -4.889430 6.895485 -8.428736
v -3.585346 8.330219 -7.526056
v -6.653092 6.257898 -8.058303
v -6.666907 7.504106 -6.392850
v -5.151176 7.254112 -8.981950
v -4.899752 8.279922 -7.122262
v -2.748808 7.066977 -8.504047
v -4.548119 6.989346 -5.526584
v -2.784163 8.263376 -8.396116
v -1.562429 9.200182 -6.516310
v -0.699858 9.145619 -7.753177
v -2.269262 9.313778 -5.905921
v -4.981476 9.833120 -8.532137
v -4.995311 11.079343 -6.866696
v -3.479546 10.829319 -9.455774
v -3.228144 11.855148 -7.596098
v -4.614101 11.946600 -7.446887
v -2.668613 12.318396 -7.511196
v -2.555456 11.508728 -9.487450
v 0.991431 9.874688 -7.001788
v -0.172565 11.321198 -5.434548
v 2.094437 13.043819 -6.140371
v 2.680704 11.420601 -7.301597
v 0.605547 13.599663 -7.395597
v 0.944536 11.727898 -8.373092
v 4.988014 10.918180 -9.463837
v 3.222821 11.981335 -9.179698
v 4.201428 13.192514 -7.789844
v 4.898846 9.740959 -3.774657
v 4.133655 11.384556 -2.974431
v 5.893578 11.655247 -1.789823
v 4.613289 6.963882 0.828316
v 3.046597 7.856209 0.005804
v 2.745584 9.013738 1.778793
v 3.290854 8.293569 2.947181
v 3.456054 7.886066 1.014842
v 1.591500 8.858932 0.626360
v 1.432058 6.599380 5.322581
v 1.247066 7.482955 3.558393
v -0.790823 6.847467 3.427620
v -1.376728 5.949927 2.266800
v -1.117702 5.673671 4.312174
v 0.472121 7.025393 4.271475
v 2.198197 6.858316 5.137947
v 3.159997 7.575212 3.438552
v 0.349192 7.382636 4.499528
v 1.279072 7.753984 2.609726
v 1.225497 7.836159 4.842640
v 2.416520 8.495639 3.269894
v 0.821278 8.185299 1.960223
v -4.728709 7.289289 -1.790510
v -4.469666 7.013025 0.254853
v -2.879833 8.364738 0.214154
v 5.028083 6.052362 -6.452350
v 4.169896 7.180464 -5.067347
v 6.013349 8.211346 -4.731400
v 2.863853 5.911148 -4.914999
v 3.750141 7.557037 -4.257133
v 5.091547 7.528450 -5.922568
v 4.244932 7.141500 -6.396759
v 2.598913 7.109123 -5.125310
v 3.641470 8.317409 -3.780133
v 6.506014 8.344119 -4.058465
v 6.090231 7.674305 -5.983418
v 4.652133 9.101278 -3.756526
v 4.112658 8.077393 -5.555017
v -5.436081 5.625447 -6.003075
v -4.824215 6.313231 -4.229129
v -1.591913 5.873459 -5.440735
v -3.972168 3.530485 1.543625
v -2.912334 4.954373 0.662383
v -3.933954 4.604708 -1.183692
v -3.226019 4.198010 -2.536403
v -4.576662 3.246009 -1.272905
v -3.841190 4.369964 0.324648
v -3.413283 3.756931 2.113256
v -1.667271 4.887570 2.120989
v -4.162159 4.643894 0.453804
v -2.221187 5.514942 0.235154
v -2.157400 5.744567 1.611639
v -2.066609 5.909140 -0.361168
v -4.084094 5.221003 -0.534840
v -3.692793 4.402929 -1.967476
v -4.745475 4.131614 -0.194008
v -2.862526 6.156021 -1.385521
v -3.618336 5.686856 0.559368
v 7.194720 10.086168 -7.184384
v 4.771774 10.267193 -7.205336
v 5.373770 11.143228 -6.134213
v 4.583561 9.810869 -8.006142
v 6.087279 10.780899 -10.697197
v 5.601463 12.375450 -9.625443
v 7.564682 12.433706 -8.779112
v 6.350859 10.370488 -9.747392
v 4.978607 10.307858 -7.743334
v -2.217737 10.855270 -6.098948
v 1.704483 10.839079 -7.286213
v 6.315979 8.720430 -0.958461
v 2.331419 9.516449 -0.561508
v -0.572006 9.033066 -1.698608
v 4.265125 9.855689 -2.701010
v 3.822238 10.927660 -2.878429
v -7.226913 10.221085 -7.877014
v -5.276515 10.668678 -10.861302
v 4.860757 11.902657 -1.455055
v 4.500345 10.623482 -6.272140
v -0.022523 8.913870 3.151542
v 0.862541 12.296749 6.632102
v 1.947655 11.386276 0.963250
v -3.504287 9.945475 -4.102447
v -4.005184 8.470409 -7.716561
v 7.335007 8.724298 -7.363594
v -0.981619 10.552086 -2.297691
v -4.563828 4.796898 -2.124923
v -2.036160 10.448891 -3.037154
v 0.632164 6.642183 -5.033668
v -0.747952 7.077121 -2.492641
v -1.223534 8.034067 -2.964373
v 1.599973 8.411060 -5.573448
v 0.897530 7.960917 -6.167663
v -1.075680 9.178022 -4.392222
v 2.317390 9.417110 -6.692153
v -3.361584 10.087831 -10.441673
v -4.766062 9.976247 -9.876535
v 4.990982 9.495656 -9.069214
v 2.489548 10.956018 -8.640135
v 6.571022 10.663119 -8.347412
v 6.749634 10.060532 -1.877723
v 2.858639 6.287567 -1.385879
v -1.710118 7.917631 1.438692
v -0.709253 9.763214 -0.839368
v 7.370575 7.270739 -5.240474
v -5.301800 7.563957 -4.413126
v 8.011893 12.376209 -7.805339
v 4.824673 13.858383 -7.411509
v 5.944268 14.664396 -2.849764
v 5.107719 12.448044 -1.083770
v 1.658990 13.681995 3.896767
v 4.524849 9.130531 -6.419034
v -7.225674 11.929646 0.691892
v -2.069021 1.268184 -0.632840
v 6.299703 8.673729 4.712668
v -4.826979 13.558064 -7.412227
v -4.804364 9.868416 -9.633728
v -0.661345 13.639675 -3.052228
v -5.306762 13.469910 -7.658154
v -0.134393 14.711603 -8.569821
v 3.147521 14.962410 -1.880697
v 0.147605 13.507118 -10.443826
v -0.138032 13.391113 4.256465
v -7.078590 12.054859 -2.184776
v 0.308801 7.105741 -3.452611
v -4.797705 10.841749 -1.977198
v 3.273443 6.831716 0.830172
v 7.411387 13.477043 -9.218692
v 8.083759 12.313297 -10.784072
v 5.380779 13.256527 -9.852640
v 6.085703 11.839280 -11.115883
v -6.502300 8.004285 -4.698885
v 6.772270 13.569407 -7.860431
v 6.087186 13.473007 -6.448658
v 7.911905 13.726702 -8.525891
v 1.739321 11.631289 7.011744
v 1.425400 12.851484 5.115982
v 2.222000 12.209307 6.907571
v 3.187132 13.979883 4.672201
v 4.022292 13.011719 6.242703
v 0.545218 11.006320 6.835461
v 0.874752 12.907864 3.978698
v -0.620599 12.063879 2.834846
v 0.155434 11.932182 5.740663
v -1.028759 10.869196 4.488056
v 1.276840 11.250889 7.291942
v 0.445149 12.435625 6.984605
v 1.436581 11.941921 0.813324
v 4.367617 12.055777 1.720326
v 2.022602 12.324304 1.110444
v 0.804864 13.997633 -8.104055
v 2.627963 14.218403 -8.608635
v -1.244692 12.975967 -9.188999
v -1.056664 13.780205 -9.361634
v 0.379471 12.464283 -10.041801
v -2.227008 13.505610 -11.130476
v -0.975181 11.967302 -11.540092
v -4.331328 8.097418 -10.269152
v -3.907895 8.708870 -8.953007
v -2.846729 8.392796 -10.693935
v -5.563499 7.572595 -9.689053
v -4.318983 7.007175 -11.183300
v -5.681941 7.680686 -9.755281
v -5.302308 13.191137 -9.548881
v -6.904528 12.383568 -8.072680
v -7.925859 10.983329 -6.953302
v -5.741615 12.973602 -6.377548
v -6.517792 11.340973 -5.464552
v -5.858183 13.460716 -7.358068
v -6.004042 12.970632 -9.356899
v -7.552841 12.247341 -6.878707
v -7.389809 11.535572 -8.767660
v -5.288660 10.855667 -11.290712
v -5.427364 12.668205 -9.936627
v -2.943251 11.450211 -9.189189
v -5.289267 12.929689 -2.159667
v -6.970937 12.029598 -0.832911
v 2.842527 12.546127 -2.136828
v 3.140006 13.143342 -1.772486
v 4.549459 14.128143 1.255056
v 2.776040 14.570379 -1.315011
v 7.236855 13.295769 0.298479
v 5.767391 11.782745 -2.008574
v 4.402603 12.897144 -3.434608
v 5.928491 12.321342 -4.698298
v 2.977204 12.816626 -5.027006
v 4.439990 11.905235 -6.090491
v 3.616785 13.791931 -4.265483
v 6.864786 12.267680 -5.271485
v 4.264203 12.133463 -9.402528
v 6.206732 12.016900 -8.717122
v 4.731871 10.924131 -11.103334
v 6.492073 10.557268 -10.171440
v -0.697834 8.948063 3.980994
v 1.849985 12.964529 2.599113
v -0.138501 13.500492 2.723435
v 2.093782 13.161267 4.714714
v 0.074999 13.306541 4.783478
v 3.169651 12.029877 2.163671
v -5.488451 7.012620 -1.020801
v -6.683000 6.440629 0.561185
v -3.905550 7.573249 0.303609
v -4.985893 6.649033 1.745831
v -5.814361 6.497501 -2.469994
v -5.092426 7.342316 0.392121
v -5.168250 7.682989 -0.579065
v -8.049330 9.811101 0.249560
v -8.006401 9.753109 -0.889040
v -5.508467 10.257671 1.724190
v -6.057574 11.491989 1.120263
v -7.565117 10.682898 -2.118997
v -0.603154 11.563604 1.430728
v -3.330045 12.351103 0.321900
v -1.389987 12.710366 0.925143
v -2.701741 12.022354 -1.695804
v -0.818596 12.016495 -0.950766
v -5.941420 11.198112 -1.523466
v -5.317789 12.284142 -2.311767
v -2.081339 12.600792 -2.270422
v -2.971109 12.034519 -8.006755
v -3.372941 12.776312 -8.021729
v -0.458248 9.750521 -9.075121
v -1.250167 10.372437 -7.947515
v 4.033482 8.564924 3.345315
v 5.434723 7.870987 4.691334
v 5.564296 9.272245 2.029927
v 6.846783 8.239660 3.209049
v 3.713194 8.805185 1.887541
v 5.485201 8.925386 3.188923
v 7.368741 8.432363 2.506284
v 4.851617 9.467615 1.219532
v 6.577919 8.615425 0.591061
v 6.178272 10.030496 5.916748
v 3.196604 10.204285 4.904202
v 5.959412 9.728621 -2.476285
v 7.431162 9.334728 -1.085029
v 7.373432 9.647270 -4.078762
v 8.662145 8.902892 -2.705277
v 5.475769 9.482176 -3.887228
v 8.468393 10.075422 -3.519401
v 5.270655 10.278578 -4.075974
v 5.114868 9.874146 -2.058815
v 7.360895 10.690956 -3.889518
v 7.194169 9.921051 -2.023839
v 6.289399 10.152983 -7.178627
v 7.187567 8.524821 -8.072596
v 4.763223 10.204659 -8.675968
v 5.484213 8.404722 -9.260521
v 5.614479 10.921007 -7.038527
v 7.042662 9.991791 -8.201998
v 4.152727 10.741238 -8.589310
v 5.487590 9.521248 -9.500954
v 7.652923 11.636007 1.733693
v 9.463737 10.814388 1.183494
v 6.998975 11.699234 -0.301562
v 8.624992 10.560776 -0.703079
v 6.175248 11.722424 1.426422
v 7.633780 12.143730 1.034477
v 8.109619 11.881964 -0.955960
v 5.554618 12.333722 0.570881
v 6.063552 11.701385 -1.284505
v 6.093396 12.558588 1.504443
v 5.276114 10.283518 1.382931
v 5.473545 10.471285 3.428061
v 7.312001 10.862411 1.076361
v 7.516087 10.656523 3.080680
v -0.366012 11.011801 -3.827168
v 2.706511 11.307415 -2.304781
v 0.090817 11.377604 -5.557292
v -0.497184 13.422405 -3.789565
v 3.287321 11.716261 -3.847188
v 0.283873 11.990135 -5.460237
v 0.284462 12.612543 -3.493158
v 2.401268 11.691158 -5.425406
v 2.254327 11.948079 -3.421981
v 0.167756 12.769894 -5.760972
v 2.014349 13.737690 -4.520092
v 3.872083 13.149689 -3.841945
v 2.425124 12.977204 -6.476321
v 4.051785 12.111919 -5.635748
v 0.869220 14.045953 -3.487917
v 1.524736 14.195847 -3.842516
v -2.439590 4.507532 -5.791844
v -4.937033 5.220665 -4.154525
v -3.944988 6.149229 -3.127009
v -2.044635 7.538343 -3.997845
v -1.396163 11.077654 -6.567521
v -0.145405 10.517437 -7.530089
v -1.987906 7.269734 -8.350626
v -4.212729 7.759089 -8.807951
v -6.255040 7.468877 -8.846951
v -4.366355 9.008680 -7.079123
v -6.285712 8.371395 -6.973053
v -4.503148 6.765347 -9.412701
v -4.583439 11.044113 -9.320797
v -1.845929 12.424601 -8.235970
v -0.923096 10.902206 -9.278801
v -3.713497 12.029549 -9.200392
v -2.831540 10.340570 -9.886536
v 1.160202 11.863745 -8.734353
v -0.153170 10.487990 -9.533817
v -0.417248 13.274368 -8.424864
v -1.669608 11.744854 -8.864735
v 0.777527 14.089945 -7.640308
v 2.317893 12.945917 -6.881848
v 0.768524 12.971127 -9.462988
v 2.000610 11.681911 -8.503126
v 5.933842 11.971869 -8.077308
v 3.547006 11.880272 -1.898649
v 3.385951 12.444646 0.079316
v 5.604553 11.356993 -1.640615
v 5.256091 11.572775 0.342643
v 6.602180 9.861050 -2.586729
v 4.336517 7.965028 2.630556
v 1.420690 9.165411 2.683847
v -0.505205 5.846648 5.236801
v 0.189629 7.158835 2.155735
v -0.284326 7.426286 3.626199
v -0.233738 7.877125 2.026219
v -1.399165 6.412879 2.894858
v 0.527674 8.480774 3.931417
v -0.345188 6.798927 4.646164
v -3.162340 8.498186 -1.901575
v 6.887929 6.923255 -6.121461
v 4.189963 5.739501 -6.508388
v 5.314002 8.201414 -5.107982
v -2.964480 7.458735 -7.270751
v -3.758713 5.883155 -8.340111
v -4.584267 7.402054 -5.875399
v -5.082634 5.646389 -6.753235
v -2.794620 8.081285 -5.903642
v -1.448453 7.835650 -7.447760
v -4.244862 6.864849 -6.899116
v -2.744930 6.377964 -8.169736
v -4.943156 3.045792 -0.230979
v -2.422631 5.212988 -1.035846
v -4.085114 4.966569 1.536782
v 7.985016 10.692205 -9.850021
vt 0.505433 0.495582
vt 0.505433 0.003658
vt 0.997357 0.003658
vt 0.003950 0.004912
vt 0.504431 0.004994
vt 0.441930 0.497065
vt 0.498158 0.004934
vt 0.437359 0.497065
vt 0.441965 0.497065
vt 0.002761 0.504212
vt 0.491972 0.504186
vt 0.004501 0.996365
vt 0.494685 0.996365
vt 0.503342 0.504212
vt 0.992554 0.504185
vt 0.505082 0.996365
vt 0.995266 0.996365
vt 1.003813 0.504286
vt 0.941329 0.996365
vt 0.995266 0.504207
vt 0.492945 0.996365
vt 0.494685 0.504211
vt 0.993526 0.996365
vt 0.503231 0.504290
vt 0.440710 0.996365
vt 0.992549 0.504186
vt 0.994037 0.504201
vt 0.986393 0.996362
vt 0.997357 0.495582
vt 0.062468 0.497065
vt 0.001666 0.004931
vt 0.495874 0.004915
vt -0.004602 0.004991
vt 0.057899 0.497065
vt 0.503342 0.996365
vt 0.506054 0.504186
vt 0.002761 0.996365
vt 0.005475 0.504185
vt 0.494790 0.504291
vt 0.557321 0.996365
vt -0.005789 0.504291
vt 0.056709 0.996365
vt 0.506050 0.504186
vn -0.551200 0.460900 0.695600
vn -0.521800 0.349500 0.778200
vn -0.267100 0.611300 0.744900
vn -0.144400 0.703100 0.696200
vn -0.153600 0.595800 0.788300
vn 0.180700 0.705800 0.684900
vn 0.033800 0.713400 -0.699900
vn -0.280500 0.457400 -0.843900
vn -0.368000 0.622800 -0.690400
vn 0.514800 0.710600 -0.479600
vn 0.685100 0.349000 -0.639400
vn 0.489900 0.415600 -0.766300
vn 0.701700 0.699700 0.134400
vn 0.847100 0.375100 0.376500
vn 0.923900 0.352900 0.147900
vn -0.119400 0.660300 -0.741500
vn -0.198200 0.285600 -0.937600
vn -0.399800 0.374000 -0.836800
vn -0.818600 0.574300 -0.010100
vn -0.983300 0.179200 0.031700
vn -0.929400 0.273000 0.248200
vn 0.148300 0.801700 -0.579000
vn 0.465200 0.538400 -0.702600
vn 0.263100 0.494600 -0.828400
vn -0.648800 0.760500 0.025100
vn -0.625400 0.645000 0.439000
vn -0.452000 0.805000 0.384300
vn 0.102300 0.935900 0.337000
vn -0.067300 0.733300 0.676500
vn 0.174000 0.714900 0.677200
vn -0.735800 0.592900 -0.327300
vn -0.924500 0.206300 -0.320500
vn -0.943300 0.315000 -0.104900
vn -0.656100 0.754400 -0.022600
vn -0.770600 0.542800 0.334100
vn -0.597500 0.704900 0.382300
vn -0.641900 0.683100 0.348300
vn -0.737100 0.337200 0.585700
vn -0.558100 0.464600 0.687500
vn -0.013600 0.999800 0.017000
vn 0.013100 0.900400 0.434800
vn 0.233500 0.912800 0.335000
vn -0.668900 0.720900 -0.181300
vn -0.772300 0.423000 -0.474000
vn -0.886000 0.380800 -0.264500
vn 0.180400 0.981000 0.071600
vn 0.543800 0.832700 -0.104500
vn 0.380000 0.883000 -0.275400
vn 0.658700 0.448300 -0.604300
vn 0.808200 0.045200 -0.587200
vn 0.643000 0.068300 -0.762800
vn 0.426200 0.680700 -0.595900
vn 0.559600 0.309900 -0.768600
vn 0.345300 0.375100 -0.860200
vn -0.256500 0.821600 -0.509000
vn -0.638800 0.658500 -0.397800
vn -0.553000 0.802700 -0.223400
vn -0.410000 0.576000 0.707200
vn -0.475500 0.179700 0.861100
vn -0.258900 0.263700 0.929200
vn -0.824900 0.080900 -0.559500
vn -0.784600 -0.345100 -0.515100
vn -0.909800 -0.251000 -0.330400
vn -0.587300 0.047300 -0.808000
vn -0.647500 -0.356900 -0.673400
vn -0.800700 -0.205700 -0.562700
vn -0.130600 0.972500 -0.192900
vn -0.137500 0.961700 0.237100
vn 0.089300 0.983800 0.155300
vn -0.206800 0.972700 0.105000
vn 0.113700 0.915400 0.386200
vn 0.200500 0.965600 0.165900
vn -0.231700 0.782500 0.577900
vn 0.135700 0.690900 0.710100
vn 0.375500 0.808100 0.453800
vn -0.435900 0.845200 -0.309200
vn -0.764900 0.567800 -0.304300
vn -0.736200 0.671100 -0.087200
vn -0.436000 0.845200 -0.309200
vn -0.764900 0.567900 -0.304100
vn -0.736300 0.671100 -0.087100
vn 0.426200 0.680600 -0.595900
vn -0.330500 0.901200 -0.280400
vn -0.285800 0.697700 -0.656900
vn -0.504400 0.655700 -0.561900
vn -0.120800 0.960600 0.250200
vn 0.276600 0.877200 0.392300
vn 0.281000 0.946200 0.160300
vn -0.710400 0.683300 -0.168900
vn -0.918400 0.389900 0.067100
vn -0.807500 0.551500 0.209200
vn -0.551600 0.061600 -0.831800
vn -0.589200 -0.072300 -0.804800
vn -0.759600 0.195200 -0.620400
vn 0.824300 -0.201100 0.529200
vn 0.775300 -0.333800 0.536100
vn 0.946200 -0.228900 0.228800
vn 0.654000 0.031700 0.755800
vn 0.689300 -0.100100 0.717500
vn 0.831200 0.179100 0.526300
vn -0.924400 -0.082600 -0.372400
vn -0.969000 -0.058200 -0.240200
vn -0.866500 0.229600 -0.443300
vn -0.673200 -0.299000 -0.676300
vn -0.594900 -0.416500 -0.687400
vn -0.827100 -0.390100 -0.404600
vn 0.531500 -0.211800 -0.820200
vn 0.645600 -0.200300 -0.737000
vn 0.455700 -0.514100 -0.726700
vn -0.813400 0.136600 0.565500
vn -0.881300 0.058400 0.468900
vn -0.681600 -0.116000 0.722500
vn -0.677700 -0.214100 0.703500
vn -0.600000 -0.329900 0.728800
vn -0.487700 -0.011700 0.872900
vn -0.757700 0.183500 0.626300
vn -0.665400 0.155400 0.730100
vn -0.655800 0.488100 0.575900
vn -0.863600 -0.471400 -0.178900
vn -0.801100 -0.585700 -0.123300
vn -0.936400 -0.334200 0.107000
vn -0.692100 -0.072400 -0.718200
vn -0.719000 -0.201000 -0.665400
vn -0.864400 0.089300 -0.494800
vn 0.042000 -0.127300 -0.991000
vn 0.007500 -0.262300 -0.965000
vn -0.261100 -0.012400 -0.965200
vn 0.558400 0.222200 -0.799300
vn 0.574800 0.082300 -0.814100
vn 0.263500 0.233300 -0.936000
vn 0.949800 0.015200 -0.312500
vn 0.961400 -0.112100 -0.251300
vn 0.806700 -0.094000 -0.583500
vn 0.606800 0.276000 -0.745400
vn 0.605600 0.139600 -0.783400
vn 0.320100 0.348300 -0.881100
vn 0.770100 0.490200 -0.408200
vn 0.841400 0.368300 -0.395500
vn 0.611900 0.405000 -0.679400
vn -0.108400 -0.889500 -0.444000
vn -0.062200 -0.944700 -0.321900
vn -0.414200 -0.843200 -0.342800
vn -0.550000 -0.761100 -0.343800
vn -0.481800 -0.840400 -0.248100
vn -0.762100 -0.633800 -0.132500
vn 0.740200 -0.651200 -0.167300
vn 0.641000 -0.733500 -0.226100
vn 0.778900 -0.459300 -0.427100
vn 0.328500 0.593200 -0.735000
vn 0.048000 0.930400 -0.363300
vn 0.326100 0.911700 -0.249900
vn 0.240400 0.946400 -0.215600
vn 0.350700 0.935900 -0.033600
vn 0.653700 0.608300 -0.450200
vn 0.623700 0.426300 -0.655200
vn 0.105000 0.657100 -0.746500
vn 0.220800 0.822800 -0.523600
vn 0.131200 0.815400 -0.563900
vn 0.081800 0.919400 -0.384600
vn 0.645500 0.694800 -0.317000
vn 0.427000 0.853300 -0.299300
vn 0.643700 0.557400 -0.524300
vn 0.443400 0.625300 -0.642200
vn -0.574600 0.555700 0.600800
vn -0.637300 0.647700 0.417500
vn -0.891000 0.090800 0.444900
vn 0.534200 0.729900 -0.426500
vn 0.221700 0.654700 -0.722700
vn 0.180400 0.805400 -0.564600
vn 0.227300 0.927400 -0.296900
vn 0.029800 0.924300 -0.380600
vn -0.024400 0.973400 0.227600
vn 0.441400 0.891100 0.105000
vn 0.030900 0.955800 -0.292300
vn -0.113500 0.993100 -0.030900
vn -0.142900 0.981900 -0.124400
vn -0.326900 0.944700 -0.023800
vn 0.118800 0.912200 0.392100
vn 0.018100 0.984600 0.173900
vn -0.123000 0.992300 0.012500
vn -0.409900 0.761500 0.502200
vn -0.646700 0.756400 -0.098700
vn -0.897800 0.411900 -0.156000
vn -0.880500 0.467500 0.078900
vn -0.093800 0.896200 0.433700
vn -0.301900 0.870300 0.389100
vn -0.161600 0.495900 0.853200
vn -0.202900 0.975700 0.082500
vn -0.387200 0.921900 -0.012800
vn -0.407600 0.717900 0.564300
vn -0.965400 0.168500 0.199100
vn -0.662300 0.507500 0.551200
vn -0.683800 0.666600 0.296700
vn -0.631100 0.676600 0.379300
vn -0.526100 0.811900 0.252900
vn -0.879400 0.464700 -0.103900
vn 0.353500 0.935300 -0.016900
vn 0.407600 0.886600 -0.218600
vn -0.200400 0.959200 -0.199600
vn 0.902000 0.365200 -0.230200
vn 0.707400 0.337800 -0.620800
vn 0.683200 0.526600 -0.506000
vn 0.199000 0.977700 -0.066700
vn 0.160000 0.947900 -0.275500
vn -0.375800 0.926500 0.020900
vn -0.585400 0.780400 -0.219800
vn -0.852300 0.523000 -0.001600
vn -0.729600 0.667400 0.149200
vn 0.430600 0.724200 -0.538600
vn 0.214800 0.494900 -0.842000
vn 0.107000 0.661600 -0.742200
vn -0.322600 0.945300 -0.049600
vn -0.305100 0.875600 0.374600
vn -0.091200 0.952300 0.291200
vn -0.652600 0.584100 -0.482700
vn -0.531400 0.847000 0.014300
vn -0.311100 0.934900 -0.170900
vn -0.326100 0.942500 -0.073700
vn -0.118500 0.989500 -0.082500
vn -0.271800 0.738200 -0.617400
vn 0.026900 0.782000 -0.622700
vn -0.063500 0.886400 -0.458600
vn 0.524800 0.789500 -0.318200
vn -0.157300 0.333600 -0.929500
vn -0.382500 0.724600 -0.573300
vn -0.092000 0.800900 -0.591700
vn -0.166700 0.829000 -0.533800
vn -0.002700 0.906600 -0.422000
vn 0.223500 0.512000 -0.829400
vn 0.557700 0.498600 -0.663600
vn 0.213700 0.373600 -0.902600
vn 0.201100 0.569000 -0.797400
vn -0.742200 0.538000 -0.399600
vn -0.402600 0.907600 -0.119100
vn -0.273200 0.879700 -0.389300
vn -0.245500 0.920500 -0.304000
vn -0.057400 0.913100 -0.403700
vn -0.440900 0.549700 -0.709500
vn -0.460100 0.795200 -0.394900
vn -0.148900 0.987600 0.048800
vn 0.045700 0.982500 -0.180400
vn 0.054900 0.995000 -0.083100
vn 0.258200 0.956700 -0.134200
vn -0.085000 0.787800 -0.610000
vn -0.870600 0.256300 -0.420000
vn -0.915200 0.402900 -0.010500
vn -0.826000 0.540400 -0.160600
vn -0.852000 0.383800 0.356200
vn -0.553300 0.673500 0.490100
vn -0.646400 0.705400 0.290900
vn -0.714100 0.668800 0.206800
vn -0.213200 0.950400 0.226400
vn -0.288600 0.955300 -0.064800
vn -0.206700 0.978300 -0.014900
vn -0.127400 0.968800 -0.212400
vn -0.676400 0.702000 -0.222800
vn -0.349300 0.307100 -0.885300
vn -0.709500 0.510300 -0.486000
vn -0.489800 0.715600 -0.497900
vn -0.565400 0.699800 -0.436600
vn -0.450200 0.834400 -0.318000
vn -0.090500 0.633300 -0.768600
vn -0.898900 0.422700 0.115300
vn -0.810800 0.507600 0.291300
vn -0.574100 0.795200 -0.195200
vn -0.597700 -0.025400 0.801300
vn -0.413300 0.516900 0.749700
vn -0.652200 0.502900 0.567200
vn -0.580800 0.569500 0.581700
vn -0.658800 0.639500 0.396300
vn -0.872600 0.074200 0.482700
vn -0.431600 0.795300 -0.425800
vn -0.245000 0.891100 -0.381900
vn -0.152800 0.505700 -0.849100
vn -0.671900 0.593700 -0.442700
vn -0.879800 0.217600 -0.422600
vn -0.912600 0.345000 -0.219300
vn -0.869700 0.490500 -0.054400
vn -0.472600 0.875100 0.104100
vn -0.453600 0.869400 -0.196200
vn -0.398100 0.908800 -0.124800
vn -0.261600 0.921300 -0.287800
vn -0.709300 0.540300 -0.452800
vn -0.588400 0.787100 -0.185400
vn -0.395000 0.898700 0.190500
vn -0.294000 0.955800 0.001000
vn -0.675800 0.410000 -0.612500
vn -0.814100 0.575300 -0.079400
vn -0.607900 0.776200 -0.167300
vn -0.650600 0.755100 -0.080800
vn -0.486900 0.873400 -0.012800
vn -0.371000 0.716100 -0.591200
vn -0.520500 0.757600 -0.393800
vn -0.575000 0.795800 -0.190000
vn 0.009300 0.964700 -0.263100
vn -0.815600 0.404600 -0.413500
vn -0.725200 0.683800 0.080900
vn -0.549800 0.827000 -0.117300
vn -0.558300 0.829400 -0.019100
vn -0.370700 0.927800 -0.041900
vn -0.498200 0.652100 -0.571500
vn -0.063200 0.983100 0.171800
vn 0.301200 0.876900 0.374500
vn 0.344200 0.928100 0.142000
vn -0.648700 0.711000 0.271300
vn -0.123600 0.911600 0.392100
vn -0.163800 0.981200 0.102200
vn -0.086000 0.982900 0.162900
vn 0.013900 0.999600 -0.024500
vn -0.558000 0.818300 -0.137700
vn -0.964900 -0.248100 -0.085600
vn -0.934600 0.161400 0.317100
vn -0.947600 0.314000 0.058200
vn -0.928500 0.339100 0.151400
vn -0.856800 0.513100 0.051700
vn -0.926200 0.076200 -0.369200
vn -0.971300 0.186400 -0.148000
vn -0.946000 0.323700 0.014700
vn -0.673000 0.564300 -0.478200
vn -0.867000 0.290000 0.405200
vn -0.595100 0.612100 0.520700
vn -0.702600 0.631800 0.327300
vn -0.152300 0.987400 0.042200
vn -0.066100 0.985800 -0.154100
vn -0.630500 0.751300 -0.194900
vn -0.391500 0.441500 -0.807400
vn -0.290400 0.050300 -0.955600
vn -0.511800 0.050600 -0.857600
vn -0.303400 0.952600 -0.021900
vn -0.306700 0.922500 -0.234200
vn -0.783300 0.621600 0.005900
vn 0.492900 0.869000 0.043400
vn 0.321800 0.944800 -0.061200
vn 0.155800 0.840300 0.519200
vn 0.311400 0.910800 0.271000
vn 0.381500 0.921800 0.068600
vn -0.229100 0.971600 0.059200
vn 0.552000 0.790700 -0.264900
vn 0.411300 0.899900 -0.145200
vn 0.776300 0.585600 0.233300
vn 0.698300 0.694100 -0.175000
vn 0.301700 0.750800 -0.587600
vn 0.193200 0.913200 -0.358700
vn 0.155800 0.882100 -0.444500
vn -0.024000 0.938400 -0.344600
vn 0.417000 0.905700 0.076400
vn 0.409500 0.820300 -0.399300
vn 0.243100 0.919900 -0.307600
vn 0.634400 0.760900 0.136100
vn 0.482800 0.715800 0.504400
vn 0.589300 0.806200 -0.053400
vn 0.326800 0.945100 -0.005500
vn 0.378200 0.921700 -0.086400
vn 0.189400 0.966200 -0.174800
vn 0.099400 0.899500 0.425400
vn 0.308500 0.940500 0.142700
vn 0.641200 0.763300 -0.078900
vn 0.477100 0.856800 -0.195800
vn 0.025500 0.625400 -0.779900
vn 0.081200 0.770500 -0.632300
vn 0.561500 0.401500 -0.723600
vn -0.611500 0.738500 -0.284100
vn -0.883900 0.411300 -0.222400
vn -0.846600 0.532100 -0.015900
vn -0.507400 0.501200 -0.700900
vn -0.809900 0.246000 -0.532500
vn -0.792800 0.452900 -0.407800
vn 0.585600 0.613000 -0.530500
vn 0.323400 0.267200 -0.907700
vn 0.126000 0.489600 -0.862800
vn 0.121200 0.401900 -0.907600
vn -0.086700 0.445500 -0.891100
vn 0.210500 0.828100 -0.519600
vn -0.475800 -0.144500 -0.867600
vn -0.601400 0.390200 -0.697100
vn -0.339400 0.419200 -0.842100
vn -0.393000 0.479000 -0.785000
vn -0.207700 0.584400 -0.784500
vn -0.097700 0.021900 -0.995000
vn -0.416400 0.232700 -0.878900
vn -0.579500 0.638900 -0.505900
vn -0.311200 0.733300 -0.604500
vn -0.371200 0.761500 -0.531400
vn -0.192000 0.860400 -0.472000
vn -0.040800 0.446000 -0.894100
vn -0.709600 0.704500 -0.012200
vn -0.620400 0.758500 -0.199500
vn -0.929600 0.236300 -0.282700
vn -0.473200 0.652900 0.591500
vn -0.261600 0.953600 0.149300
vn -0.525200 0.849600 0.047800
vn -0.448100 0.894000 0.005300
vn -0.547600 0.819700 -0.167900
vn -0.784600 0.533300 0.316300
vn 0.162800 0.905100 -0.392800
vn 0.283300 0.933900 -0.218000
vn 0.584100 0.554300 -0.593000
vn -0.325100 0.923600 0.203300
vn -0.133600 0.982900 0.127000
vn -0.478300 0.806500 -0.347600
vn 0.651900 0.747700 -0.126200
vn 0.374200 0.920100 -0.115700
vn 0.240900 0.945000 0.221400
vn 0.245600 0.937800 0.245500
vn 0.493700 0.863100 -0.106500
vn 0.290400 0.946800 -0.139100
vn -0.827100 0.561600 0.022100
vn -0.408300 0.874600 0.261400
vn -0.378200 0.925100 -0.033700
vn -0.322800 0.945400 0.045100
vn -0.179400 0.977700 -0.109300
vn -0.648100 0.673600 -0.355300
vn -0.139000 0.931100 0.337200
vn -0.194700 0.971600 0.134100
vn -0.648500 0.651800 0.393100
vn 0.144800 0.971600 0.187400
vn -0.066000 0.986400 0.150700
vn 0.011300 0.718000 0.695900
vn 0.036100 0.984300 -0.172700
vn -0.161200 0.954500 -0.251000
vn -0.193200 0.913000 0.359300
vn -0.492500 0.848400 0.194200
vn -0.370100 0.928300 0.037300
vn -0.793200 0.567800 -0.219900
vn 0.283000 0.847100 0.449800
vn 0.395400 0.911800 -0.110400
vn 0.106400 0.990800 -0.084100
vn 0.165700 0.973000 -0.160700
vn -0.023300 0.965700 -0.258700
vn -0.127300 0.931100 0.341900
vn 0.452500 0.890400 0.048500
vn 0.726600 0.635700 0.260800
vn 0.773500 0.633300 0.023400
vn 0.259200 0.881600 -0.394500
vn 0.094400 0.955600 -0.279000
vn 0.551900 0.827000 0.107500
vn -0.454500 0.732500 0.506800
vn 0.002300 0.968400 0.249300
vn -0.212800 0.976300 0.039000
vn -0.115500 0.992600 0.038100
vn -0.151000 0.973600 -0.171200
vn -0.642900 0.756800 0.118400
vn -0.158800 0.986400 -0.043400
vn -0.126300 0.959000 -0.253600
vn -0.676600 0.727100 -0.116700
vn 0.199000 0.967100 -0.158500
vn 0.272200 0.897200 -0.347600
vn -0.339500 0.868600 -0.360900
vn -0.105400 0.301100 -0.947800
vn -0.444000 0.492900 -0.748300
vn -0.251800 0.604100 -0.756100
vn 0.240300 0.964200 -0.112000
vn 0.276800 0.808800 -0.518900
vn 0.078800 0.886800 -0.455400
vn 0.403500 0.904700 -0.136500
vn 0.237200 0.813800 -0.530500
vn 0.105900 0.917200 -0.384000
vn -0.302200 0.103800 -0.947600
vn -0.657000 0.220900 -0.720800
vn -0.509900 0.379400 -0.772000
vn 0.302600 0.483600 -0.821300
vn -0.001000 0.210700 -0.977600
vn -0.067500 0.411300 -0.909000
vn 0.374800 0.273900 -0.885700
vn -0.188800 0.386700 -0.902700
vn -0.068900 0.630400 -0.773200
vn -0.161100 0.597700 -0.785400
vn -0.194800 0.746300 -0.636400
vn 0.405800 0.637900 -0.654500
vn -0.219200 0.629700 0.745200
vn 0.217000 0.653000 0.725600
vn 0.100000 0.793900 0.599800
vn 0.333000 0.914500 -0.229600
vn 0.126500 0.969300 -0.210800
vn 0.346700 0.869400 0.352200
vn 0.317600 0.946200 0.062300
vn 0.253300 0.956900 -0.141900
vn -0.246400 0.945600 0.212300
vn 0.642200 0.478000 -0.599300
vn 0.126500 0.717400 -0.685100
vn 0.236300 0.863400 -0.445700
vn 0.147700 0.859700 -0.489000
vn 0.093700 0.948400 -0.302900
vn 0.654900 0.716900 -0.238900
vn -0.032100 0.882100 0.470000
vn 0.396500 0.822200 0.408300
vn 0.282500 0.926500 0.248600
vn 0.126400 0.717500 -0.685000
vn -0.161100 0.879000 -0.448700
vn -0.254900 0.930500 -0.262900
vn 0.350700 0.920700 -0.171300
vn 0.575000 0.773400 0.266800
vn 0.723900 0.677000 -0.132700
vn 0.556700 0.822400 -0.116900
vn -0.074000 0.505900 -0.859400
vn -0.349400 0.815800 -0.460900
vn -0.061700 0.899400 -0.432800
vn -0.143000 0.914300 -0.378900
vn 0.005700 0.971400 -0.237300
vn 0.287500 0.668200 -0.686200
vn 0.702800 0.653800 0.280200
vn 0.697100 0.700200 -0.154500
vn 0.560000 0.827700 -0.034900
vn -0.472200 0.686300 -0.553200
vn -0.532200 0.326300 -0.781200
vn -0.705800 0.352500 -0.614500
vn 0.057700 0.456300 -0.888000
vn -0.453800 0.593800 -0.664400
vn -0.265000 0.795400 -0.545000
vn -0.358700 0.770400 -0.527100
vn -0.316500 0.881500 -0.350400
vn 0.217100 0.754900 -0.618800
vn -0.170200 0.696200 -0.697400
vn -0.674000 0.593600 -0.439800
vn -0.541700 0.798300 -0.263300
vn -0.621500 0.741100 -0.253900
vn -0.595900 0.801400 -0.051200
vn -0.079100 0.934100 -0.348000
vn 0.050400 0.916200 0.397500
vn 0.374400 0.921400 0.103900
vn 0.172400 0.984400 0.036300
vn 0.228800 0.882000 -0.412000
vn 0.038900 0.942200 -0.332900
vn 0.430300 0.892400 0.135700
vn 0.384500 0.876000 -0.291200
vn 0.072300 0.677900 -0.731600
vn -0.128100 0.820000 -0.557800
vn -0.135400 0.760000 -0.635700
vn -0.336300 0.753100 -0.565500
vn 0.005200 0.992800 -0.119700
vn -0.635600 0.709500 0.304200
vn -0.246100 0.900000 0.359800
vn -0.345900 0.924000 0.162800
vn 0.505900 0.690500 0.517000
vn 0.345100 0.938300 0.023400
vn 0.107000 0.973100 0.203900
vn 0.122300 0.986600 0.107600
vn -0.090800 0.989600 0.111200
vn 0.098100 0.758800 0.643900
vn 0.207600 0.925600 0.316500
vn 0.358000 0.929000 -0.094000
vn 0.146200 0.987400 -0.060700
vn -0.842400 0.436300 0.316400
vn -0.408100 0.772100 0.487100
vn -0.463700 0.861800 0.205400
vn -0.391200 0.879800 0.269900
vn -0.298900 0.949900 0.091300
vn -0.783800 0.616800 -0.072200
vn 0.345400 0.722400 -0.599000
vn 0.188800 0.839100 -0.510200
vn 0.631600 0.769800 -0.092500
vn 0.212900 0.506000 -0.835900
vn -0.317300 0.663200 -0.677900
vn -0.136800 0.843900 -0.518800
vn -0.233300 0.824100 -0.516200
vn -0.211000 0.920900 -0.327800
vn 0.347900 0.776000 -0.526200
vn 0.474500 0.834300 0.280700
vn 0.679100 0.728400 -0.090800
vn 0.500400 0.859400 -0.104900
vn 0.480300 0.803900 -0.350900
vn 0.327900 0.800400 -0.501800
vn 0.072100 0.997200 0.018800
vn 0.346600 0.159300 -0.924400
vn -0.089600 0.525700 -0.846000
vn 0.148000 0.668500 -0.728800
vn 0.050600 0.684700 -0.727100
vn 0.111900 0.814300 -0.569600
vn 0.577900 0.438300 -0.688400
vn 0.379700 0.891000 -0.248900
vn 0.182800 0.927700 -0.325600
vn 0.152400 0.946000 0.286000
vn -0.906500 0.316700 -0.279200
vn -0.610100 0.783200 -0.120300
vn -0.532500 0.741600 -0.407900
vn -0.498700 0.799200 -0.335500
vn -0.336500 0.814300 -0.473000
vn -0.681200 0.341500 -0.647500
vn -0.638600 0.558800 -0.529100
vn -0.526700 0.722500 -0.447800
vn -0.180200 0.451200 -0.874000
vn -0.602300 0.752600 0.266200
vn -0.223000 0.956300 0.189300
vn -0.363600 0.931400 0.019000
vn -0.529700 0.009000 -0.848100
vn -0.699800 0.465200 -0.542100
vn -0.456300 0.562500 -0.689500
vn -0.511200 0.599100 -0.616200
vn -0.339900 0.724700 -0.599500
vn -0.185300 0.249500 -0.950500
vn -0.119400 0.410700 0.903900
vn 0.235800 0.615400 0.752100
vn 0.037500 0.705400 0.707800
vn -0.076400 0.699400 0.710700
vn 0.307300 0.893100 0.328500
vn 0.041500 0.975900 0.214100
vn 0.133800 0.974700 0.179100
vn 0.026100 0.999700 -0.003100
vn -0.374200 0.825000 0.423500
vn -0.759700 0.595300 -0.261500
vn -0.796900 0.578600 0.173800
vn -0.669000 0.738200 0.086900
vn -0.856900 0.417800 -0.301800
vn -0.603800 0.795500 0.050300
vn -0.479000 0.850300 -0.217900
vn -0.459000 0.879500 -0.125800
vn -0.277100 0.934900 -0.222000
vn -0.575100 0.557900 -0.598400
vn -0.302200 0.453400 -0.838500
vn -0.702800 0.559200 -0.439800
vn -0.496200 0.773200 -0.394800
vn -0.574900 0.742300 -0.344100
vn -0.477400 0.857100 -0.193400
vn -0.073700 0.763300 -0.641800
vn -0.477800 0.867500 0.138600
vn -0.075500 0.955500 0.285300
vn -0.117300 0.990600 0.070000
vn -0.428300 0.744700 -0.511900
vn -0.268200 0.861900 -0.430300
vn -0.033500 0.500100 -0.865300
vn -0.766600 0.596000 0.238900
vn -0.652300 0.434600 0.620900
vn -0.523900 0.633300 0.569500
vn -0.287600 0.559500 -0.777400
vn -0.306300 0.713800 -0.629800
vn 0.290900 0.620200 -0.728600
vn -0.831400 0.547500 -0.094600
vn -0.392500 0.917500 -0.064600
vn -0.405100 0.842300 -0.355600
vn -0.339700 0.891300 -0.300400
vn -0.220300 0.853200 -0.472800
vn -0.710100 0.490100 -0.505600
vn -0.831500 0.547500 -0.094500
vn -0.039400 0.965100 -0.258900
vn 0.117400 0.911200 -0.395000
vn -0.406900 0.679200 -0.610900
vn 0.866700 0.278700 -0.413800
vn 0.511000 0.148700 -0.846600
vn 0.446200 0.435300 -0.781900
vn 0.403500 0.366400 -0.838400
vn 0.244200 0.507400 -0.826400
vn 0.648900 0.651700 -0.392600
vn -0.086000 0.500100 -0.861700
vn -0.272400 0.771900 -0.574400
vn -0.053800 0.791600 -0.608700
vn 0.234400 0.645100 -0.727200
vn 0.293000 0.771700 -0.564400
vn 0.713300 0.329200 -0.618800
vn 0.483900 0.697800 -0.528100
vn 0.331000 0.827900 -0.452700
vn 0.713500 0.700600 0.008500
vn 0.597200 0.757600 -0.263400
vn 0.463700 0.774500 -0.430400
vn 0.171400 0.983000 0.066000
vn -0.176500 0.932200 0.316000
vn -0.328100 0.930200 0.164500
vn -0.520700 0.578700 0.627700
vn -0.804700 0.457700 0.378200
vn -0.504700 0.518200 0.690500
vn -0.519000 0.670800 0.529700
vn 0.466000 0.832600 0.299400
vn 0.116500 0.984400 -0.131500
vn -0.059900 0.991900 0.112100
vn -0.076800 0.996900 0.015000
vn -0.274500 0.957900 0.084500
vn 0.108700 0.832600 0.543100
vn 0.077400 0.978700 0.190000
vn 0.096200 0.964400 -0.246400
vn -0.104000 0.982900 -0.152100
vn -0.420400 0.681100 -0.599400
vn -0.345600 0.820700 -0.454900
vn 0.130800 0.613000 -0.779200
vn -0.642900 0.673500 -0.364800
vn -0.464800 0.778700 -0.421400
vn -0.526400 0.298100 -0.796200
vn -0.660900 0.563000 -0.496300
vn -0.764700 0.639500 -0.078500
vn -0.612800 0.771100 -0.173100
vn 0.490700 0.628600 -0.603400
vn -0.063500 0.653200 -0.754500
vn -0.040800 0.848900 -0.527000
vn -0.116700 0.809200 -0.575900
vn -0.219400 0.887000 -0.406300
vn 0.376800 0.884800 -0.274200
vn -0.231700 0.972000 -0.039500
vn 0.127200 0.971900 0.197800
vn 0.180200 0.982900 -0.038200
vn -0.535700 0.791200 0.295100
vn -0.512300 0.853900 0.091400
vn -0.914400 0.392000 0.100700
vn -0.873500 0.388000 -0.294000
vn -0.940600 0.313000 0.131300
vn -0.856800 0.510400 0.073000
vn -0.109600 0.638300 0.761900
vn -0.024300 0.956500 0.290600
vn -0.320300 0.901900 0.289700
vn -0.257500 0.940000 0.223900
vn -0.423800 0.900600 0.096700
vn -0.514800 0.594800 0.617400
vn -0.191000 0.978400 -0.078600
vn -0.320100 0.916900 -0.238500
vn -0.586100 0.756800 0.289500
vn -0.954800 0.179500 -0.236900
vn -0.817700 0.545100 0.185200
vn -0.726100 0.684500 -0.065200
vn -0.712600 0.700900 0.031100
vn -0.560500 0.826700 -0.048800
vn -0.741400 0.452200 -0.495800
vn 0.141200 0.700600 -0.699400
vn 0.237600 0.807200 -0.540400
vn 0.608000 0.350600 -0.712300
vn -0.292400 0.590300 0.752300
vn -0.535300 0.411800 0.737500
vn -0.255400 0.457800 0.851600
vn 0.150500 0.699600 0.698500
vn -0.144800 0.654700 0.741800
vn 0.141500 0.570900 0.808700
vn -0.502200 0.812000 -0.297500
vn -0.403100 0.858600 -0.316800
vn -0.061800 0.772900 -0.631500
vn -0.389500 0.776200 -0.495800
vn -0.101500 0.730200 -0.675700
vn -0.508600 0.602100 -0.615500
vn 0.417400 0.879700 -0.227900
vn 0.658600 0.752200 -0.020600
vn 0.498900 0.757500 -0.421100
vn -0.636600 0.766300 0.086100
vn -0.679100 0.691600 -0.245800
vn -0.789600 0.592700 0.159000
vn -0.814900 0.527500 -0.240000
vn -0.763400 0.361300 -0.535400
vn -0.930200 0.340000 -0.138400
vn 0.396500 0.903300 -0.163800
vn 0.583400 0.805200 0.106400
vn 0.534700 0.781500 -0.321400
vn -0.271400 0.818300 0.506800
vn -0.548000 0.622500 0.558800
vn -0.146100 0.712900 0.685800
vn -0.044400 0.624800 -0.779500
vn 0.163900 0.384900 -0.908300
vn -0.245000 0.498500 -0.831500
vn 0.139400 0.955700 0.259300
vn -0.202600 0.939600 0.275900
vn 0.168500 0.860600 0.480600
vn -0.183000 0.962600 0.200000
vn -0.238800 0.826500 0.509700
vn 0.057300 0.971100 0.231600
vn -0.243400 0.329100 -0.912400
vn 0.098400 0.339100 -0.935600
vn -0.253800 0.092000 -0.962900
vn -0.017200 0.857000 0.515100
vn -0.349700 0.774700 0.526800
vn 0.039500 0.711900 0.701200
vn -0.039300 0.969400 0.242500
vn -0.322100 0.857700 0.400700
vn 0.106300 0.899600 0.423600
vn 0.236300 0.692000 -0.682100
vn 0.343300 0.850900 -0.397700
vn 0.439400 0.560600 -0.701900
vn -0.309000 0.929600 -0.201200
vn -0.484600 0.756400 -0.439400
vn -0.471000 0.881700 -0.027100
vn 0.382100 0.696100 -0.607800
vn 0.654100 0.637300 -0.407500
vn 0.427800 0.504800 -0.749800
vn 0.188100 0.961400 -0.200600
vn 0.476800 0.878300 -0.035500
vn 0.266600 0.871400 -0.411800
vn -0.111500 0.681300 -0.723400
vn 0.225900 0.707500 -0.669600
vn -0.087500 0.488100 -0.868400
vn -0.256100 0.963200 -0.081600
vn -0.406200 0.887600 0.217300
vn -0.039200 0.999000 0.020600
vn -0.125200 0.741800 -0.658900
vn -0.016000 0.921500 -0.388100
vn 0.099600 0.680200 -0.726300
vn 0.195300 0.896600 -0.397400
vn 0.303600 0.949700 -0.076500
vn 0.402300 0.789000 -0.464300
vn -0.610500 0.786400 0.094100
vn -0.832700 0.532100 0.153500
vn -0.527700 0.786100 0.322000
vn -0.023600 0.939300 -0.342300
vn -0.267800 0.958000 -0.102400
vn 0.155600 0.970900 -0.182000
vn 0.226800 0.570000 -0.789700
vn 0.283700 0.794400 -0.537100
vn 0.444400 0.465800 -0.765200
vn -0.441900 0.856800 -0.265600
vn -0.717500 0.655000 -0.237100
vn -0.432700 0.901100 -0.027100
vn -0.745000 0.497700 0.444200
vn -0.826200 0.177200 0.534800
vn -0.582700 0.522000 0.622900
vn -0.468000 0.839200 0.276900
vn -0.631800 0.612500 0.475100
vn -0.280600 0.858300 0.429600
vn 0.303600 0.946200 -0.111900
vn -0.032700 0.997100 -0.068700
vn 0.345800 0.929800 0.126300
vn 0.733700 0.565800 -0.376200
vn 0.646000 0.756100 -0.104800
vn 0.874600 0.418500 -0.244800
vn -0.077300 0.944800 -0.318300
vn -0.331200 0.801200 -0.498300
vn -0.213600 0.969600 -0.119300
vn -0.308900 0.929600 -0.201200
vn -0.484600 0.756400 -0.439300
vn -0.470900 0.881800 -0.027000
vn 0.244500 0.964300 0.101700
vn -0.096800 0.987700 0.122600
vn 0.268600 0.903000 0.335200
vn -0.584400 0.685900 -0.433700
vn -0.302800 0.718400 -0.626300
vn -0.665100 0.494700 -0.559500
vn -0.926600 0.331000 -0.178500
vn -0.852200 0.196700 -0.484900
vn -0.989600 0.116500 -0.084300
vn -0.816500 0.561900 -0.132900
vn -0.917200 0.273900 -0.289200
vn -0.873600 0.478600 0.087700
vn 0.298600 0.719300 -0.627300
vn 0.555800 0.728300 -0.400800
vn 0.394000 0.532600 -0.749100
vn -0.329600 0.822400 -0.463800
vn -0.261900 0.624900 -0.735500
vn -0.546600 0.720700 -0.426500
vn -0.748000 0.171300 -0.641200
vn -0.573900 0.000300 -0.818900
vn -0.794400 0.011700 -0.607300
vn 0.935600 -0.240100 0.258900
vn 0.805500 -0.264900 0.530100
vn 0.877600 -0.399400 0.265100
vn 0.822700 0.154000 0.547200
vn 0.675200 -0.028500 0.737100
vn 0.866200 -0.003000 0.499700
vn -0.881000 0.204000 -0.426800
vn -0.947700 -0.067100 -0.312100
vn -0.934000 0.235200 -0.268800
vn -0.810100 -0.394800 -0.433400
vn -0.640500 -0.356700 -0.680100
vn -0.717200 -0.536300 -0.444900
vn 0.476100 -0.487600 -0.731800
vn 0.586100 -0.211100 -0.782200
vn 0.612400 -0.475800 -0.631400
vn -0.704200 -0.100400 0.702900
vn -0.846400 0.096600 0.523800
vn -0.784700 -0.195800 0.588100
vn -0.501000 -0.041600 0.864500
vn -0.640700 -0.266700 0.720000
vn -0.406500 -0.178900 0.896000
vn -0.660400 0.459800 0.593600
vn -0.715200 0.174900 0.676700
vn -0.549100 0.428300 0.717700
vn -0.929100 -0.359700 0.086100
vn -0.837800 -0.525100 -0.149300
vn -0.854600 -0.495800 0.154600
vn -0.855800 0.062700 -0.513600
vn -0.709300 -0.131200 -0.692500
vn -0.889100 -0.090500 -0.448700
vn -0.237500 -0.035800 -0.970700
vn 0.021800 -0.189900 -0.981600
vn -0.281000 -0.196800 -0.939300
vn 0.294100 0.220600 -0.930000
vn 0.564000 0.156900 -0.810700
vn 0.311800 0.052800 -0.948700
vn 0.825800 -0.096300 -0.555700
vn 0.956500 -0.046300 -0.288200
vn 0.838700 -0.249500 -0.484100
vn 0.348600 0.330700 -0.877000
vn 0.604400 0.213400 -0.767600
vn 0.345300 0.167600 -0.923400
vn 0.636900 0.403900 -0.656700
vn 0.804200 0.433100 -0.407100
vn 0.721200 0.257300 -0.643200
vn -0.383500 -0.857500 -0.342800
vn -0.091000 -0.917800 -0.386400
vn -0.330200 -0.923400 -0.195800
vn -0.740200 -0.656700 -0.144100
vn -0.522400 -0.799400 -0.296900
vn -0.659900 -0.750800 -0.028000
vn 0.770500 -0.487500 -0.410700
vn 0.696200 -0.689700 -0.199100
vn 0.651700 -0.584900 -0.482900
vn -0.012300 0.626500 -0.779400
vn -0.245900 0.664700 -0.705500
vn -0.104700 0.592400 -0.798800
vn 0.150200 0.709100 -0.689000
vn -0.192800 0.726400 -0.659700
vn 0.107000 0.879500 -0.463700
vn -0.859900 0.231600 0.455000
vn -0.718100 0.514800 0.468400
vn -0.935800 0.256500 0.241900
vn 0.418000 0.832200 -0.364400
vn 0.244600 0.809700 -0.533400
vn 0.409300 0.792500 -0.452100
vn -0.010900 0.996300 0.085600
vn 0.046700 0.973200 -0.225300
vn -0.236100 0.969400 0.066900
vn -0.678100 0.703800 -0.211800
vn -0.636100 0.567100 -0.523300
vn -0.834700 0.532000 -0.142300
vn -0.352700 0.846100 0.399700
vn -0.180700 0.969800 0.164100
vn -0.534700 0.800500 0.270700
vn -0.131700 0.782500 0.608600
vn -0.018500 0.905000 0.425000
vn -0.039400 0.812000 0.582300
vn -0.327400 0.726800 0.603900
vn -0.110000 0.907100 0.406300
vn -0.481000 0.793700 0.372400
vn -0.358800 0.873400 -0.329300
vn -0.022600 0.938500 -0.344600
vn -0.360400 0.758500 -0.542900
vn -0.798500 0.566500 0.203800
vn -0.736600 0.515000 0.438400
vn -0.821100 0.499800 0.275600
vn -0.703300 0.705200 0.089400
vn -0.690500 0.592600 0.414900
vn -0.485900 0.849500 0.205500
vn -0.201100 0.606700 0.769100
vn -0.246000 0.810900 0.530900
vn -0.408100 0.513100 0.755100
vn -0.416200 0.794600 0.442100
vn -0.379700 0.912800 0.150400
vn -0.610700 0.685700 0.396000
vn -0.057100 0.975900 -0.210400
vn 0.258000 0.946900 -0.191900
vn -0.072000 0.902200 -0.425200
vn 0.826500 0.514100 -0.229400
vn 0.728400 0.515100 -0.451800
vn 0.832100 0.460300 -0.309500
vn -0.256300 0.965300 -0.050700
vn 0.033500 0.983400 -0.178100
vn -0.359400 0.900900 -0.243200
vn 0.283200 0.801600 -0.526500
vn 0.160300 0.691200 -0.704700
vn 0.303000 0.741100 -0.599100
vn 0.398400 0.841300 -0.365200
vn 0.099800 0.879900 -0.464600
vn 0.360400 0.919800 -0.155100
vn 0.457500 0.627800 -0.629800
vn 0.268100 0.575000 -0.773000
vn 0.437200 0.564500 -0.700100
vn 0.528600 0.546100 -0.649800
vn 0.304700 0.592400 -0.745800
vn 0.467700 0.510600 -0.721500
vn 0.601400 0.636600 -0.482800
vn 0.320400 0.658000 -0.681400
vn 0.436100 0.828700 -0.350800
vn -0.800300 0.406200 -0.441000
vn -0.835800 0.502700 -0.220700
vn -0.849900 0.383900 -0.360900
vn -0.397700 0.658300 -0.639100
vn -0.610300 0.552700 -0.567500
vn -0.459800 0.584800 -0.668300
vn -0.296100 0.795600 -0.528600
vn -0.594100 0.623300 -0.508500
vn -0.405100 0.871800 -0.275600
vn -0.849500 0.479800 0.219600
vn -0.697100 0.655000 0.291700
vn -0.807100 0.507300 0.302200
vn -0.653900 0.752100 -0.082500
vn -0.794200 0.588900 0.150100
vn -0.507100 0.860200 0.053700
vn -0.674600 0.545200 0.497700
vn -0.474900 0.677300 0.561900
vn -0.607700 0.550500 0.572400
vn -0.766400 0.559000 0.316600
vn -0.507100 0.714200 0.482500
vn -0.659100 0.741600 0.124800
vn -0.738700 0.586900 -0.331500
vn -0.861300 0.488500 -0.139600
vn -0.801200 0.510600 -0.312100
vn -0.600700 0.735300 -0.313800
vn -0.818100 0.564800 -0.107700
vn -0.544800 0.836900 -0.052600
vn -0.182100 0.618900 -0.764100
vn -0.258600 0.811400 -0.524200
vn 0.041700 0.658400 -0.751500
vn -0.451000 0.857000 -0.249500
vn -0.343900 0.937800 -0.046700
vn -0.474200 0.866400 -0.156200
vn -0.134900 0.957400 -0.255300
vn -0.437800 0.864500 -0.246900
vn -0.117800 0.992500 -0.031100
vn -0.765000 0.524200 -0.374200
vn -0.915700 0.377900 -0.136700
vn -0.680100 0.691100 -0.244700
vn -0.883200 0.384500 0.268400
vn -0.747200 0.576200 0.331200
vn -0.839400 0.417200 0.348300
vn -0.513900 0.836400 -0.190800
vn -0.227700 0.963500 -0.141100
vn -0.474100 0.780400 -0.407800
vn -0.693400 0.718600 -0.052400
vn -0.441400 0.884800 -0.149200
vn -0.736500 0.626200 -0.255800
vn 0.203500 0.896000 0.394600
vn 0.317000 0.942900 0.102300
vn -0.012900 0.940400 0.339800
vn -0.086300 0.994200 0.064600
vn 0.227700 0.968700 0.099300
vn -0.083000 0.983200 -0.162700
vn 0.714500 0.683900 0.147400
vn 0.542800 0.836900 -0.071000
vn 0.583500 0.745100 0.323100
vn 0.561100 0.827200 0.030500
vn 0.378800 0.899300 -0.218600
vn 0.409300 0.893000 0.186900
vn 0.230100 0.842100 -0.487800
vn -0.013600 0.846000 -0.533000
vn 0.165400 0.812700 -0.558800
vn 0.313700 0.897300 -0.310600
vn -0.000400 0.891700 -0.452600
vn 0.139800 0.985000 -0.101300
vn 0.251300 0.967800 -0.011900
vn 0.439000 0.886900 -0.143400
vn 0.342300 0.939600 0.004500
vn 0.462500 0.506600 -0.727700
vn 0.200200 0.682900 -0.702500
vn 0.570900 0.605900 -0.554000
vn 0.487400 0.666700 -0.563900
vn 0.382000 0.540500 -0.749600
vn 0.508900 0.590700 -0.626200
vn 0.389400 0.803800 -0.449800
vn 0.322300 0.607900 -0.725600
vn 0.114100 0.854300 -0.507100
vn -0.886900 0.374000 -0.271200
vn -0.737700 0.644700 -0.200500
vn -0.800500 0.357200 -0.481200
vn 0.031000 0.996000 0.083800
vn 0.188100 0.944700 0.268600
vn 0.029600 0.982600 0.183500
vn 0.081600 0.990200 -0.113200
vn 0.239400 0.952000 0.190900
vn 0.349800 0.919100 -0.181200
vn 0.530000 0.668100 -0.522300
vn 0.354000 0.867400 -0.349700
vn 0.685600 0.632600 -0.360200
vn -0.357700 0.866500 0.348300
vn -0.117600 0.928800 0.351500
vn -0.280100 0.867000 0.412200
vn -0.471800 0.863200 0.179800
vn -0.150400 0.951800 0.267200
vn -0.348500 0.934900 -0.067800
vn -0.411100 0.878800 -0.242100
vn -0.256800 0.966200 0.020600
vn -0.230100 0.896300 -0.379100
vn 0.238900 0.833400 0.498400
vn 0.346200 0.891800 0.291300
vn 0.326300 0.825200 0.461100
vn 0.134800 0.982500 0.128800
vn 0.270600 0.960000 -0.071800
vn 0.228000 0.967700 0.107600
vn -0.559200 0.754300 0.344000
vn -0.311400 0.920300 0.236900
vn -0.661300 0.736600 0.141500
vn 0.424700 0.902400 0.072400
vn 0.552100 0.754700 0.354400
vn 0.592100 0.802600 -0.072100
vn -0.006300 0.810300 0.586000
vn -0.016800 0.952800 0.303100
vn -0.229900 0.769000 0.596500
vn -0.191300 0.956200 0.221500
vn -0.146100 0.985100 -0.090900
vn -0.408200 0.889600 0.204700
vn -0.717500 0.677100 -0.163400
vn -0.512200 0.858800 -0.004200
vn -0.613800 0.700300 -0.364600
vn 0.459200 0.888200 0.015000
vn 0.241200 0.948100 -0.207200
vn 0.320500 0.927800 0.191100
vn 0.164800 0.942400 -0.291000
vn 0.085100 0.856300 -0.509500
vn 0.202400 0.904300 -0.376000
vn 0.041800 0.989800 -0.136100
vn 0.009800 0.886200 -0.463300
vn -0.239800 0.955400 -0.172200
vn -0.564600 0.810900 -0.153800
vn -0.278500 0.940100 -0.196400
vn -0.581200 0.727300 -0.364900
vn -0.200600 0.907300 -0.369600
vn 0.113400 0.935000 -0.335900
vn -0.190400 0.799500 -0.569700
vn -0.027600 0.439900 -0.897600
vn -0.213600 0.561700 -0.799300
vn -0.123900 0.431200 -0.893700
vn 0.081200 0.983900 -0.159100
vn 0.095400 0.915100 -0.391800
vn 0.151000 0.963100 -0.222700
vn 0.248900 0.962200 -0.110600
vn 0.152700 0.930900 -0.331700
vn 0.280500 0.939000 -0.199000
vn -0.264700 0.265100 -0.927200
vn -0.466100 0.343200 -0.815400
vn -0.352600 0.230300 -0.907000
vn 0.168900 0.580600 -0.796500
vn -0.004600 0.442700 -0.896600
vn 0.164400 0.500300 -0.850100
vn 0.285600 0.825500 0.486800
vn 0.322400 0.911100 0.256900
vn 0.359800 0.833400 0.419600
vn 0.102700 0.811800 0.574800
vn 0.234100 0.931200 0.279400
vn -0.125500 0.896400 0.425200
vn -0.207100 0.749200 0.629200
vn 0.033700 0.781000 0.623600
vn -0.130800 0.720500 0.681000
vn 0.453600 0.886100 -0.095300
vn 0.251400 0.940600 -0.228100
vn 0.423100 0.885700 -0.191100
vn 0.458200 0.882300 0.108000
vn 0.232200 0.962600 -0.139400
vn 0.217600 0.943600 0.249400
vn 0.305600 0.925100 0.225400
vn 0.219500 0.972600 -0.076100
vn 0.095600 0.945800 0.310300
vn -0.131100 0.982400 0.133300
vn 0.143400 0.989300 -0.025000
vn -0.261400 0.963800 -0.052500
vn 0.453400 0.883500 0.117500
vn 0.468900 0.873700 -0.129700
vn 0.518000 0.854100 0.046500
vn 0.284000 0.933600 0.218600
vn 0.387900 0.915200 -0.109600
vn 0.050200 0.996500 0.066900
vn -0.021000 0.948200 0.317000
vn 0.219000 0.934500 0.280600
vn 0.057600 0.927400 0.369500
vn 0.213600 0.956000 -0.201000
vn -0.094100 0.956200 -0.277300
vn 0.179600 0.983500 0.022300
vn -0.034200 0.907500 0.418600
vn 0.171200 0.943300 0.284400
vn 0.065600 0.901000 0.428800
vn -0.222400 0.913200 0.341500
vn 0.099300 0.968000 0.230400
vn -0.252200 0.965700 0.062300
vn 0.510000 0.402300 -0.760300
vn 0.290500 0.504900 -0.812900
vn 0.429200 0.384300 -0.817300
vn 0.634400 0.469500 -0.614000
vn 0.334500 0.563600 -0.755300
vn 0.551800 0.695600 -0.460100
vn 0.305800 0.724400 -0.617900
vn 0.062800 0.747200 -0.661700
vn 0.236800 0.691100 -0.682900
vn 0.398700 0.797800 -0.452300
vn 0.082700 0.803200 -0.589900
vn 0.239900 0.935600 -0.258900
vn 0.522600 0.785900 -0.330700
vn 0.321200 0.821700 -0.470700
vn 0.488800 0.763200 -0.422600
vn 0.534000 0.834900 -0.133500
vn 0.306900 0.867800 -0.390800
vn 0.304500 0.952500 -0.010500
vn 0.467500 0.865700 0.178800
vn 0.553700 0.831400 -0.045900
vn 0.545900 0.826300 0.138200
vn -0.016000 0.929500 -0.368600
vn -0.240600 0.934200 -0.263400
vn -0.112000 0.912600 -0.393300
vn 0.158000 0.951100 -0.265400
vn -0.180000 0.963400 -0.198800
vn 0.143000 0.989600 0.017400
vn 0.581000 0.767700 0.270300
vn 0.582100 0.812500 0.031400
vn 0.637000 0.745900 0.194600
vn -0.070300 0.985800 0.152300
vn 0.107200 0.994000 -0.020800
vn 0.029900 0.988800 0.146300
vn -0.267500 0.957100 0.111200
vn 0.025600 0.997500 -0.065700
vn -0.344900 0.924600 -0.161900
vn -0.039000 0.963600 0.264600
vn 0.137300 0.985600 0.098600
vn 0.057700 0.963000 0.263400
vn 0.349800 0.936500 0.024000
vn 0.170200 0.956600 -0.236400
vn 0.178200 0.969200 0.170000
vn -0.617800 0.771900 0.150300
vn -0.409800 0.894900 0.176600
vn -0.559700 0.798100 0.223100
vn 0.065700 0.968600 0.239900
vn 0.144000 0.989500 0.010600
vn 0.150800 0.969400 0.193900
vn 0.545300 0.814100 -0.199900
vn 0.334100 0.836000 -0.435300
vn 0.411400 0.910400 -0.043000
vn 0.314600 0.947700 -0.054500
vn 0.500300 0.846200 -0.183700
vn 0.407400 0.912400 -0.039500
vn 0.129300 0.982900 -0.130900
vn 0.433300 0.867300 -0.245100
vn 0.080000 0.911600 -0.403200
vn 0.371700 0.911800 0.174300
vn 0.487900 0.872200 -0.035800
vn 0.457600 0.877100 0.146200
vn 0.611000 0.713200 -0.343600
vn 0.502000 0.659300 -0.559800
vn 0.626000 0.654600 -0.423900
vn 0.525200 0.827500 -0.198700
vn 0.450600 0.725900 -0.519700
vn 0.263800 0.932400 -0.247100
vn 0.138800 0.984300 -0.108800
vn 0.297400 0.882700 -0.363800
vn -0.066200 0.976000 -0.207300
vn 0.166400 0.975300 0.145000
vn 0.211600 0.962700 -0.168500
vn -0.060400 0.989300 0.132700
vn -0.273200 0.533900 -0.800200
vn -0.474300 0.655600 -0.587600
vn -0.097400 0.665400 -0.740100
vn -0.621400 0.776800 0.102200
vn -0.421000 0.905500 0.052900
vn -0.551100 0.820400 0.152200
vn -0.196700 0.534200 0.822200
vn -0.004900 0.664100 0.747600
vn -0.101300 0.535600 0.838400
vn -0.655900 0.720800 -0.224100
vn -0.683200 0.730000 0.017300
vn -0.714500 0.681600 -0.157900
vn -0.409200 0.912400 -0.006700
vn -0.187900 0.979800 0.068200
vn -0.364700 0.927900 0.077700
vn -0.093600 0.607200 -0.789100
vn -0.241900 0.783900 -0.571800
vn 0.116000 0.673400 -0.730100
vn 0.153400 0.664900 -0.731000
vn -0.160800 0.693900 -0.701900
vn 0.203100 0.804400 -0.558300
vn -0.347700 0.839600 -0.417400
vn -0.211100 0.947300 -0.240800
vn -0.358400 0.875500 -0.324200
vn -0.270500 0.761700 -0.588800
vn -0.155400 0.936300 -0.314800
vn 0.012000 0.777500 -0.628800
vn 0.056400 0.998100 -0.024900
vn -0.261700 0.960200 0.097400
vn 0.158800 0.968300 0.192900
vn -0.292400 0.761300 -0.578700
vn -0.037300 0.894500 -0.445600
vn -0.176000 0.649900 -0.739400
vn 0.174400 0.403900 -0.898000
vn -0.067300 0.457800 -0.886500
vn 0.086300 0.365100 -0.926900
vn 0.318800 0.508400 -0.799900
vn -0.022000 0.529500 -0.848000
vn 0.238500 0.730800 -0.639600
vn -0.136100 0.323300 -0.936500
vn -0.188100 0.537100 -0.822300
vn -0.215900 0.373700 -0.902100
vn 0.052700 0.253400 -0.965900
vn -0.096100 0.536800 -0.838200
vn 0.271000 0.410900 -0.870500
vn 0.812500 0.377200 -0.444500
vn 0.679600 0.339200 -0.650500
vn 0.800100 0.307000 -0.515300
vn 0.783300 0.534000 -0.318200
vn 0.658900 0.425100 -0.620600
vn 0.577400 0.721800 -0.381600
vn 0.051800 0.580600 -0.812600
vn -0.044900 0.746600 -0.663700
vn -0.036700 0.612400 -0.789700
vn 0.414300 0.910000 0.018200
vn 0.602100 0.792900 -0.093500
vn 0.500700 0.864600 0.042000
vn 0.243500 0.966800 -0.076900
vn 0.545200 0.822700 -0.161100
vn 0.218700 0.908700 -0.355500
vn 0.634400 0.450100 -0.628400
vn 0.404300 0.668000 -0.624800
vn 0.733400 0.521400 -0.436200
vn 0.645200 0.756700 -0.105700
vn 0.465800 0.807400 -0.362200
vn 0.504800 0.862400 0.038900
vn 0.250500 0.966600 -0.053800
vn 0.426000 0.855800 -0.293500
vn 0.058500 0.982900 -0.174700
vn -0.490900 0.686600 0.536300
vn -0.367900 0.875500 0.313400
vn -0.668700 0.619800 0.410700
vn -0.736000 0.597500 0.318100
vn -0.577800 0.648700 0.495400
vn -0.717000 0.565600 0.407400
vn -0.086700 0.983400 0.159200
vn -0.085600 0.992800 -0.083800
vn -0.021100 0.995800 0.089000
vn -0.786500 0.506300 0.353800
vn -0.610400 0.645300 0.459300
vn -0.736700 0.512700 0.440900
vn -0.839500 0.519900 0.157800
vn -0.627200 0.682400 0.375500
vn -0.703400 0.710800 -0.005600
vn -0.736000 0.597600 0.318100
vn 0.017100 0.685900 -0.727500
vn -0.247000 0.777700 -0.578100
vn 0.159300 0.794100 -0.586600
vn -0.531000 0.427400 -0.731700
vn -0.525500 0.668600 -0.526100
vn -0.325700 0.470800 -0.819900
vn -0.554200 0.688400 -0.468000
vn -0.616800 0.749300 -0.241100
vn -0.625100 0.666700 -0.405800
vn -0.720500 0.427500 -0.546100
vn -0.792500 0.515600 -0.325800
vn -0.783800 0.403900 -0.471800
vn -0.565300 0.503500 -0.653400
vn -0.732300 0.577400 -0.361000
vn -0.421800 0.725200 -0.544200
vn -0.322800 0.641300 -0.696100
vn -0.538300 0.524200 -0.659900
vn -0.375300 0.565000 -0.734800
vn -0.248200 0.783000 -0.570400
vn -0.535600 0.595000 -0.599200
vn -0.400700 0.851300 -0.338800
vn -0.847800 0.520300 0.103000
vn -0.639600 0.758000 0.128000
vn -0.847400 0.516200 -0.124500
vn -0.813400 0.532200 -0.235000
vn -0.862200 0.506600 0.001800
vn -0.863600 0.471200 -0.179200
vn -0.540500 0.824000 0.169900
vn -0.381700 0.920200 -0.087100
vn -0.700800 0.711300 0.054100
vn 0.537600 0.475900 -0.696100
vn 0.328100 0.704200 -0.629600
vn 0.675100 0.522500 -0.520800
usemtl None.001
s 1
f 1/1/1 2/2/2 3/3/3
f 4/1/4 5/2/5 6/3/6
f 7/4/7 8/5/8 9/6/9
f 10/4/10 11/5/11 12/6/12
f 13/4/13 14/5/14 15/6/15
f 18/4/16 19/5/17 20/6/18
f 33/4/19 34/5/20 35/6/21
f 36/4/22 37/5/23 38/6/24
f 47/4/25 48/5/26 49/6/27
f 50/4/28 51/5/29 52/6/30
f 57/4/31 58/5/32 59/6/33
f 60/4/34 61/5/35 62/6/36
f 63/4/37 64/5/38 65/6/39
f 68/4/40 69/5/41 70/6/42
f 71/4/43 72/5/44 73/6/45
f 74/4/46 75/5/47 76/6/48
f 79/4/49 80/5/50 81/6/51
f 82/4/52 83/5/53 84/6/54
f 87/4/55 88/5/56 89/6/57
f 92/4/58 93/5/59 94/6/60
f 99/4/61 100/5/62 101/6/63
f 110/4/64 111/5/65 112/6/66
f 115/4/67 116/5/68 117/6/69
f 122/4/70 123/5/71 124/6/72
f 127/7/73 128/8/74 129/4/75
f 138/4/76 139/5/77 140/9/78
f 143/4/79 144/5/80 145/6/81
f 146/4/82 147/5/53 148/6/54
f 151/4/83 152/5/84 153/6/85
f 156/4/86 157/5/87 158/6/88
f 163/4/89 164/5/90 165/6/91
f 168/1/92 169/2/93 170/3/94
f 171/1/95 172/2/96 173/3/97
f 174/1/95 175/2/96 176/3/97
f 177/1/98 178/2/99 179/3/100
f 180/1/101 181/2/102 182/3/103
f 183/1/104 184/2/105 185/3/106
f 186/1/107 187/2/108 188/3/109
f 189/1/110 190/2/111 191/3/112
f 192/1/113 193/2/114 194/3/115
f 195/1/116 196/2/117 197/3/118
f 198/1/119 199/2/120 200/3/121
f 201/1/122 202/2/123 203/3/124
f 204/1/125 205/2/126 206/3/127
f 207/1/128 208/2/129 209/3/130
f 210/1/131 211/2/132 212/3/133
f 213/1/134 214/2/135 215/3/136
f 216/1/137 217/2/138 218/3/139
f 219/1/140 220/2/141 221/3/142
f 222/1/143 223/2/144 224/3/145
f 225/1/146 226/2/147 227/3/148
f 228/10/149 229/11/150 230/12/151
f 229/11/152 231/13/153 230/12/154
f 234/14/155 235/15/156 236/16/157
f 235/15/158 237/17/159 236/16/160
f 238/14/161 239/18/162 240/19/163
f 241/20/164 242/17/165 243/16/166
f 244/10/167 245/11/168 246/21/169
f 247/22/170 248/13/171 249/12/172
f 254/10/173 255/11/174 256/12/175
f 255/11/176 257/13/177 256/12/178
f 258/22/179 259/13/180 260/12/181
f 261/14/182 262/18/183 263/19/184
f 268/20/185 269/17/186 270/16/187
f 271/20/188 272/17/189 273/16/190
f 274/14/191 275/15/192 276/16/193
f 275/15/194 277/17/195 276/16/196
f 280/22/197 281/13/198 282/12/199
f 283/14/200 284/15/201 285/23/202
f 288/20/203 289/17/204 290/16/205
f 291/10/206 292/24/207 293/25/208
f 294/10/209 295/11/210 296/21/211
f 297/14/212 298/18/213 299/19/214
f 300/14/215 301/15/216 302/16/217
f 301/15/218 303/17/219 302/16/220
f 304/20/221 305/17/222 306/16/223
f 307/10/224 308/11/225 309/12/226
f 308/11/227 310/13/228 309/12/229
f 311/10/230 312/11/231 313/21/232
f 314/14/233 315/15/234 316/16/235
f 315/15/236 317/17/237 316/16/238
f 318/14/239 319/15/240 320/16/241
f 319/15/242 321/17/243 320/16/244
f 322/10/245 323/11/246 324/21/247
f 325/14/248 326/15/249 327/23/250
f 328/14/251 329/15/252 330/16/253
f 329/15/254 331/17/255 330/16/256
f 332/14/257 333/26/258 334/16/259
f 333/26/260 335/17/261 334/16/262
f 338/22/263 339/13/264 340/12/265
f 341/14/266 342/26/267 343/16/268
f 342/26/269 344/17/270 343/16/271
f 345/22/272 346/13/273 347/12/274
f 348/10/275 349/24/276 350/25/277
f 351/14/278 352/15/279 353/16/280
f 352/15/281 354/17/282 353/16/283
f 355/14/284 356/15/285 357/23/286
f 360/10/287 361/11/288 362/12/289
f 361/11/290 363/13/291 362/12/292
f 364/22/293 365/13/294 366/12/295
f 369/10/296 370/11/297 371/12/298
f 370/11/299 372/13/300 371/12/301
f 373/14/302 374/18/303 375/19/304
f 376/14/305 377/15/306 378/16/307
f 377/15/308 379/17/309 378/16/310
f 382/10/311 383/11/312 384/12/313
f 383/11/314 385/13/315 384/12/316
f 386/22/317 387/13/318 388/12/319
f 391/14/320 392/15/321 393/23/322
f 396/22/323 397/13/324 398/12/325
f 401/14/326 402/18/327 403/19/328
f 404/20/329 405/17/330 406/16/331
f 407/22/332 408/13/333 409/12/334
f 410/22/335 411/13/336 412/12/337
f 413/20/338 414/17/339 415/16/340
f 416/14/341 417/15/342 418/16/343
f 417/15/344 419/17/345 418/16/346
f 422/22/347 423/13/348 424/12/349
f 425/14/350 426/15/351 427/16/352
f 426/15/353 428/17/354 427/16/355
f 431/10/356 432/11/357 433/21/358
f 434/20/359 435/17/360 436/16/361
f 437/14/362 438/18/363 439/19/364
f 440/10/365 441/24/366 442/25/367
f 443/10/368 444/11/369 445/12/370
f 444/11/371 446/13/372 445/12/373
f 447/14/374 448/15/375 449/16/376
f 448/15/377 450/17/378 449/16/379
f 451/14/380 452/15/381 453/16/382
f 452/15/383 454/17/384 453/16/385
f 455/22/386 456/13/387 457/12/388
f 458/14/389 459/15/390 460/16/391
f 459/15/392 461/17/393 460/16/394
f 464/20/395 465/17/396 466/16/397
f 467/22/398 468/13/399 469/12/400
f 470/27/401 471/28/402 472/14/403
f 473/14/404 474/15/405 475/23/406
f 476/14/407 477/15/408 478/16/409
f 477/15/410 479/17/411 478/16/412
f 480/22/413 481/13/414 482/12/415
f 485/20/416 486/17/417 487/16/418
f 488/20/419 489/17/420 490/16/421
f 491/20/422 492/17/423 493/16/424
f 494/10/425 495/11/426 496/12/427
f 495/11/428 497/13/429 496/12/430
f 498/10/431 499/24/432 500/25/433
f 501/20/434 502/17/435 503/16/436
f 504/14/437 505/15/438 506/16/439
f 505/15/440 507/17/441 506/16/442
f 510/20/443 511/17/444 512/16/445
f 513/20/446 514/17/447 515/16/448
f 516/14/449 517/15/450 518/23/451
f 519/10/452 520/11/453 521/21/454
f 522/14/455 523/15/456 524/23/457
f 525/10/458 526/11/459 527/21/460
f 528/10/461 529/11/462 530/21/463
f 531/14/464 532/15/465 533/16/466
f 532/15/467 534/17/468 533/16/469
f 535/10/470 536/11/471 537/21/472
f 538/22/473 539/13/474 540/12/475
f 541/22/476 542/13/477 543/12/478
f 544/14/479 545/15/480 546/16/481
f 545/15/482 547/17/483 546/16/484
f 552/10/485 553/11/486 554/21/487
f 555/14/479 556/15/488 557/16/481
f 556/15/482 558/17/483 557/16/484
f 559/20/489 560/17/490 561/16/491
f 562/10/492 563/11/493 564/21/494
f 565/14/495 566/15/496 567/16/497
f 566/15/498 568/17/499 567/16/500
f 569/14/501 570/26/502 571/23/503
f 572/10/504 573/24/505 574/25/506
f 575/14/507 576/15/508 577/16/509
f 576/15/510 578/17/511 577/16/512
f 579/14/513 580/15/514 581/16/515
f 580/15/516 582/17/517 581/16/518
f 585/10/519 586/11/520 587/21/521
f 588/20/522 589/17/523 590/16/524
f 591/14/525 592/15/526 593/16/527
f 592/15/528 594/17/529 593/16/530
f 595/14/531 596/15/532 597/23/533
f 602/14/534 603/26/535 604/16/536
f 603/26/537 605/17/538 604/16/539
f 606/14/540 607/15/541 608/23/542
f 609/14/543 610/15/544 611/16/545
f 610/15/546 612/17/547 611/16/548
f 613/22/549 614/13/550 615/12/551
f 616/14/552 617/26/553 618/16/554
f 617/26/555 619/17/556 618/16/557
f 620/14/558 621/15/559 622/23/560
f 623/22/561 624/13/562 625/12/563
f 626/14/564 627/15/565 628/16/566
f 627/15/567 629/17/568 628/16/569
f 630/14/552 631/15/553 632/16/554
f 631/15/555 633/17/556 632/16/557
f 634/20/570 635/17/571 636/16/572
f 637/10/573 638/11/574 639/12/575
f 638/11/576 640/13/577 639/12/578
f 641/22/579 642/13/580 643/12/581
f 644/14/582 645/15/583 646/23/584
f 649/14/585 650/15/586 651/16/587
f 650/15/588 652/17/589 651/16/590
f 653/14/591 654/15/592 655/23/593
f 656/14/594 657/15/595 658/16/596
f 657/15/597 659/17/598 658/16/599
f 660/14/600 661/15/601 662/23/602
f 663/10/603 664/11/604 665/12/605
f 664/11/606 666/13/607 665/12/608
f 667/10/609 668/11/610 669/12/611
f 668/11/612 670/13/613 669/12/614
f 671/14/615 672/15/616 673/23/617
f 674/20/618 675/17/619 676/16/620
f 677/10/621 678/24/622 679/25/623
f 684/22/624 685/13/625 686/12/626
f 687/14/627 688/15/628 689/16/629
f 688/15/630 690/17/631 689/16/632
f 697/14/633 698/15/628 699/16/629
f 698/15/630 700/17/631 699/16/632
f 701/20/634 702/17/635 703/16/636
f 706/10/637 707/11/638 708/12/639
f 707/11/640 709/13/641 708/12/642
f 710/14/643 711/15/644 712/23/645
f 713/20/646 714/17/647 715/16/648
f 716/22/649 717/13/650 718/12/651
f 719/22/652 720/13/653 721/12/654
f 722/22/655 723/13/656 724/12/657
f 725/10/658 726/11/659 727/21/660
f 728/14/661 729/15/662 730/16/663
f 729/15/664 731/17/665 730/16/666
f 732/14/667 733/15/668 734/23/669
f 735/10/658 736/11/659 737/21/660
f 738/22/670 739/13/671 740/12/672
f 741/20/673 742/17/674 743/16/675
f 744/14/676 745/15/677 746/23/678
f 747/14/679 748/15/680 749/16/681
f 748/15/682 750/17/683 749/16/684
f 751/14/685 752/18/686 753/19/687
f 754/22/688 755/13/689 756/12/690
f 757/10/691 758/11/692 759/21/693
f 760/14/694 761/15/695 762/16/696
f 761/15/697 763/17/698 762/16/699
f 764/20/700 765/17/701 766/16/702
f 767/14/703 768/15/704 769/16/705
f 768/15/706 770/17/707 769/16/708
f 775/20/709 776/17/710 777/16/711
f 780/29/712 1/1/713 3/3/714
f 781/29/715 4/1/716 6/3/717
f 17/30/718 16/31/719 782/32/720
f 21/33/721 783/32/722 22/34/723
f 23/33/724 784/32/725 24/34/726
f 25/33/727 785/32/728 26/34/729
f 27/33/730 786/32/731 28/34/732
f 29/33/733 787/32/734 30/34/735
f 31/33/736 788/32/737 32/34/738
f 39/33/739 789/32/740 40/34/741
f 41/33/742 790/32/743 42/34/744
f 43/33/745 791/32/746 44/34/747
f 45/33/748 792/32/749 46/34/750
f 53/33/751 793/32/752 54/34/753
f 55/33/754 794/32/755 56/34/756
f 66/33/757 795/32/758 67/34/759
f 77/33/760 796/32/761 78/34/762
f 85/33/763 797/32/764 86/34/765
f 90/33/766 798/32/767 91/34/768
f 95/33/769 799/32/770 96/34/771
f 97/33/772 800/32/773 98/34/774
f 102/33/775 801/32/776 103/34/777
f 104/33/778 802/32/779 105/34/780
f 106/33/781 803/32/782 107/34/783
f 108/33/784 804/32/785 109/34/786
f 113/33/787 805/32/788 114/34/789
f 118/33/790 806/32/791 119/34/792
f 120/33/793 807/32/794 121/34/795
f 125/33/796 808/32/797 126/34/798
f 130/33/799 809/32/800 131/34/801
f 132/33/802 810/32/803 133/34/804
f 134/33/805 811/32/806 135/34/807
f 136/33/808 812/32/809 137/34/810
f 141/33/811 813/32/812 142/34/813
f 149/33/814 814/32/815 150/34/816
f 154/33/817 815/32/818 155/34/819
f 159/33/820 816/32/821 160/34/822
f 161/33/823 817/32/824 162/34/825
f 166/33/826 818/32/827 167/34/828
f 819/29/829 168/1/830 170/3/831
f 820/29/832 171/1/833 173/3/834
f 821/29/832 174/1/833 176/3/834
f 822/29/835 177/1/836 179/3/837
f 823/29/838 180/1/839 182/3/840
f 824/29/841 183/1/842 185/3/843
f 825/29/844 186/1/845 188/3/846
f 826/29/847 189/1/848 191/3/849
f 827/29/850 192/1/851 194/3/852
f 828/29/853 195/1/854 197/3/855
f 829/29/856 198/1/857 200/3/858
f 830/29/859 201/1/860 203/3/861
f 831/29/862 204/1/863 206/3/864
f 832/29/865 207/1/866 209/3/867
f 833/29/868 210/1/869 212/3/870
f 834/29/871 213/1/872 215/3/873
f 835/29/874 216/1/875 218/3/876
f 836/29/877 219/1/878 221/3/879
f 837/29/880 222/1/881 224/3/882
f 838/29/883 225/1/884 227/3/885
f 839/35/886 840/36/887 841/23/888
f 840/36/889 842/20/890 841/23/891
f 843/36/892 241/20/893 243/16/894
f 844/37/895 244/10/896 246/21/897
f 845/38/898 247/22/899 249/12/900
f 252/39/901 846/20/902 253/40/903
f 847/38/904 258/22/905 260/12/906
f 848/35/907 849/36/908 850/23/909
f 849/36/910 851/20/911 850/23/912
f 266/41/913 852/22/914 267/42/915
f 853/37/916 854/38/917 855/21/918
f 854/38/919 856/22/920 855/21/921
f 857/36/922 268/20/923 270/16/924
f 858/36/925 271/20/926 273/16/927
f 859/38/928 280/22/929 282/12/930
f 860/35/931 283/14/932 285/23/933
f 861/36/934 288/20/935 290/16/936
f 862/37/937 294/10/938 296/21/939
f 863/36/940 304/20/941 306/16/942
f 864/37/943 311/10/944 313/21/945
f 865/35/946 866/36/947 867/23/948
f 866/36/949 868/20/950 867/23/951
f 869/37/952 322/10/953 324/21/954
f 870/37/955 871/38/956 872/21/957
f 871/38/958 873/22/959 872/21/960
f 874/35/961 325/14/962 327/23/963
f 875/38/964 338/22/965 340/12/966
f 876/35/967 877/36/968 878/23/969
f 877/36/970 879/20/971 878/23/972
f 880/35/973 881/36/974 882/23/975
f 881/36/976 883/20/977 882/23/978
f 884/38/979 345/22/980 347/12/981
f 885/35/982 355/14/983 357/23/984
f 886/38/985 364/22/986 366/12/987
f 887/38/988 386/22/989 388/12/990
f 888/35/991 391/14/992 393/23/993
f 889/38/994 396/22/995 398/12/996
f 890/36/997 404/20/998 406/16/999
f 891/38/1000 407/22/1001 409/12/1002
f 892/38/1003 410/22/1004 412/12/1005
f 893/36/1006 413/20/1007 415/16/1008
f 894/38/1009 422/22/1010 424/12/1011
f 895/35/1012 896/36/1013 897/23/1014
f 896/36/1015 898/20/1016 897/23/1017
f 899/37/1018 431/10/1019 433/21/1020
f 900/36/1021 434/20/1022 436/16/1023
f 901/35/1024 902/36/1025 903/23/1026
f 902/36/1027 904/20/1028 903/23/1029
f 905/38/1030 455/22/1031 457/12/1032
f 906/35/1033 907/36/1034 908/23/1035
f 907/36/1036 909/20/1037 908/23/1038
f 910/36/1039 464/20/1040 466/16/1041
f 911/37/1042 912/38/1043 913/21/1044
f 912/38/1045 914/22/1046 913/21/1047
f 915/38/1048 467/22/1049 469/12/1050
f 916/35/1051 472/14/1052 471/28/1053
f 917/35/1054 473/14/1055 475/23/1056
f 918/38/1057 480/22/1058 482/12/1059
f 483/41/1060 919/22/1061 484/42/1062
f 920/36/1063 485/20/1064 487/16/1065
f 921/36/1066 488/20/1067 490/16/1068
f 922/36/1069 491/20/1070 493/16/1071
f 923/36/1072 501/20/1073 503/16/1074
f 924/35/1075 925/36/1076 926/23/1077
f 925/36/1078 927/20/1079 926/23/1080
f 928/36/1081 510/20/1082 512/16/1083
f 929/36/1084 513/20/1085 515/16/1086
f 930/35/1087 516/14/1088 518/23/1089
f 931/37/1090 519/10/1091 521/21/1092
f 932/35/1093 522/14/1094 524/23/1095
f 933/37/1096 525/10/1097 527/21/1098
f 934/37/1099 528/10/1100 530/21/1101
f 935/37/1102 936/38/1103 937/21/1104
f 936/38/1105 938/22/1106 937/21/1107
f 939/37/1108 535/10/1109 537/21/1110
f 940/35/1111 941/36/1112 942/23/1113
f 941/36/1114 943/20/1115 942/23/1116
f 944/38/1117 538/22/1118 540/12/1119
f 945/38/1120 541/22/1121 543/12/1122
f 946/37/1123 947/38/1124 948/21/1125
f 947/38/1126 949/22/1127 948/21/1128
f 950/37/1129 552/10/1130 554/21/1131
f 951/36/1132 559/20/1133 561/16/1134
f 952/35/1135 953/36/1136 954/23/1137
f 953/36/1138 955/20/1139 954/23/1140
f 956/35/1141 957/36/1142 958/23/1143
f 957/36/1144 959/20/1145 958/23/1146
f 960/35/1147 961/36/1148 962/23/1149
f 961/36/1150 963/20/1151 962/23/1152
f 964/37/1153 965/38/1154 966/21/1155
f 965/38/1156 967/22/1157 966/21/1158
f 968/37/1159 562/10/1160 564/21/1161
f 969/35/1162 970/36/1163 971/23/1164
f 970/36/1165 972/20/1166 971/23/1167
f 973/35/1168 569/14/1169 571/23/1170
f 974/37/1171 975/38/1172 976/21/1173
f 975/38/1174 977/22/1175 976/21/1176
f 978/37/1177 585/10/1178 587/21/1179
f 979/36/1180 588/20/1181 590/16/1182
f 980/35/1183 595/14/1184 597/23/1185
f 981/35/1186 606/14/1187 608/23/1188
f 982/38/1189 613/22/1190 615/12/1191
f 983/37/1192 984/38/1193 985/21/1194
f 984/38/1195 986/22/1196 985/21/1197
f 987/35/1198 620/14/1199 622/23/1200
f 988/37/1201 989/38/1202 990/21/1203
f 989/38/1204 991/22/1205 990/21/1206
f 992/38/1207 623/22/1208 625/12/1209
f 993/36/1210 634/20/1211 636/16/1212
f 994/38/1213 641/22/1214 643/12/1215
f 995/35/1216 644/14/1217 646/23/1218
f 996/35/1219 653/14/1220 655/23/1221
f 997/35/1222 660/14/1223 662/23/1224
f 998/35/1225 671/14/1226 673/23/1227
f 999/36/1228 674/20/1229 676/16/1230
f 1000/38/1231 684/22/1232 686/12/1233
f 1001/35/1234 1002/36/1235 1003/23/1236
f 1002/36/1237 1004/20/1238 1003/23/1239
f 691/39/1240 1005/20/1241 692/40/1242
f 1006/36/1243 701/20/1244 703/16/1245
f 1007/35/1246 1008/36/1247 1009/23/1248
f 1008/36/1249 1010/20/1250 1009/23/1251
f 1011/35/1252 1012/36/1253 1013/23/1254
f 1012/36/1255 1014/20/1256 1013/23/1257
f 1015/35/1258 1016/43/1259 1017/23/1260
f 1016/43/1261 1018/20/1262 1017/23/1263
f 1019/35/1264 710/14/1265 712/23/1266
f 1020/37/1267 1021/38/1268 1022/21/1269
f 1021/38/1270 1023/22/1271 1022/21/1272
f 1024/36/1273 713/20/1274 715/16/1275
f 1025/38/1276 716/22/1277 718/12/1278
f 1026/38/1279 719/22/1280 721/12/1281
f 1027/38/1282 722/22/1283 724/12/1284
f 1028/37/1285 725/10/1286 727/21/1287
f 1029/35/1288 732/14/1289 734/23/1290
f 1030/35/1291 1031/36/1292 1032/23/1293
f 1031/36/1294 1033/20/1295 1032/23/1296
f 1034/37/1297 735/10/1286 737/21/1287
f 1035/38/1298 738/22/1299 740/12/1300
f 1036/36/1301 741/20/1302 743/16/1303
f 1037/35/1304 744/14/1305 746/23/1306
f 1038/37/1307 1039/38/1308 1040/21/1309
f 1039/38/1310 1041/22/1311 1040/21/1312
f 1042/37/1313 1043/38/1314 1044/21/1315
f 1043/38/1316 1045/22/1317 1044/21/1318
f 1046/38/1319 754/22/1320 756/12/1321
f 1047/37/1322 757/10/1323 759/21/1324
f 1048/36/1325 764/20/1326 766/16/1327
f 1049/36/1328 775/20/1329 777/16/1330
l 695 696
l 336 337
l 704 705
l 429 430
l 264 265
l 232 233
l 278 279
l 420 421
l 394 395
l 286 287
l 583 584
l 250 251
l 550 551
l 773 774
l 548 549
l 771 772
l 600 601
l 682 683
l 389 390
l 380 381
l 778 779
l 367 368
l 508 509
l 358 359
l 680 681
l 462 463
l 598 599
l 647 648
l 693 694
l 399 400
